{
  "articles": {
    "results": [
      {
        "uri": "8673433490",
        "lang": "deu",
        "isDuplicate": false,
        "date": "2025-05-11",
        "time": "10:47:37",
        "dateTime": "2025-05-11T10:47:37Z",
        "dateTimePub": "2025-05-11T10:46:21Z",
        "dataType": "news",
        "sim": 0,
        "url": "https://www.berliner-zeitung.de/food/in-aller-frische-wir-haben-den-sushi-club-sahoi-in-berlin-mitte-getestet-li.2322257",
        "title": "In aller Frische: Wir haben den Sushi Club Sahoi in Berlin Mitte getestet",
        "body": "Knusprig, buttrig, k\u00f6stlich: Im Sahoi wird eine ganze \"Crispy Butter Crab\" serviert.Claudia Goedke\n\nWas f\u00fcr ein Brecher! Der Bluefin-Thunfisch, der hier heute Abend auf dem Holzbrett liegt, ist etwa anderthalb Meter lang, ein Torpedo aus Muskeln und Fett unter einer schwarzen Haut mit silbrigem Glanz, auf der die Schuppen bl\u00e4ulich schimmern.\n\n\"Dieser Fisch wiegt etwa 90 Kilo\", sagt Khan Bui, Mitinhaber des Restaurants Sahoi in der Linienstra\u00dfe in Berlin-Mitte, unweit vom Oranienburger Tor. \"Den haben wir zu acht Leuten durch den Haupteingang ins Obergeschoss gewuchtet, das war schon eine Herausforderung - so einen gro\u00dfen Fisch bekommen wir selten.\"\n\nBui hat sich fr\u00fcher durch mehrere Restaurants gearbeitet, von der K\u00fcchenhilfe \u00fcber den Service bis ins Management, und er wei\u00df, wie wichtig gute Zutaten sind, damit der Laden gut l\u00e4uft: Er bestellt seinen Thunfisch bei Balf\u00e9go, einer spanischen Fischfarm, deren Zuchtgehege auf halber H\u00f6he zwischen Barcelona und Valencia etwa f\u00fcnf Kilometer vor der K\u00fcste im Meer liegen.\n\nDort werden die Fische nach den W\u00fcnschen der Kunden ausgew\u00e4hlt und frisch gefangen, nach zwei bis drei Tagen liegen sie bei Bui in der K\u00fchlung. \"Die Tiere bekommen Sardellen und Makrelen als Futter, damit ihr Fleisch den optimalen Fettgehalt hat\", erkl\u00e4rt Bui. \"Get\u00f6tet werden sie schnell und stressfrei mit der japanischen Ikejime-Technik, bei der keine Stresshormone ins Gewebe geraten. So stellen die Z\u00fcchter sicher, dass das Fleisch sein optimales Aroma beh\u00e4lt - der Geschmack hat eine unglaubliche F\u00fclle.\"\n\nSeit einem Jahr betreiben Khan Bui und seine Mitinhaberin Lan Anh Chu das Sahoi, beide sind in Vietnam geboren. Der Name ist zusammengezogen aus dem vietnamesischen \"xa hoi\" f\u00fcr Gesellschaft und einem \"S\" f\u00fcr \"society\" und soll f\u00fcr die Freude am gemeinsamen Erlebnis stehen. Raum gibt's genug - die 45 Pl\u00e4tze verteilen sich drinnen \u00fcber zwei Etagen, im Sommer serviert man zus\u00e4tzlich auf der Terrasse. Die Einrichtung zitiert moderne Clubs und elegante Boudoirs, rotes Licht von Wandskulpturen aus Neonr\u00f6hren f\u00e4ngt sich in halbdurchsichtigen Vorh\u00e4ngen aus zartem Stoff und leise klappernden Ketten aus Kunststoff, die Gerichte aus der offenen K\u00fcche werden auf schwarzen Tischplatten serviert.\n\nDas Restaurant erstreckt sich \u00fcber zwei Etagen, hinter der Bar im Erdgeschoss werden Cocktails gemixt, f\u00fcr die einen ist das Sahoi eine Bar, in der man gut essen kann, f\u00fcr die anderen ein japanisches Restaurant, das leckere Drinks serviert. \"Bei uns l\u00e4uft immer Musik, wir sind also eher ein lebendiges als ein ruhiges Restaurant\", sagt Lan Anh Chu. \"Die K\u00fcche, die wir servieren, ist japanische Cuisine mit Schwerpunkt auf dem Izakaya-Konzept: Ein Izakaya ist eine Art Sake-Club, also ein Ort, wo man mit anderen Menschen gesellig isst und trinkt.\"\n\nUm die Drinks k\u00fcmmert sich der Barkeeper John Lee, der sich schon im \"A Voce Madison\" in New York als Barkeeper einen Namen gemacht hat: Hits auf der Karte sind der Bajiru, eine neue Deutung des Gin Basils Smash mit japanischem Roku-Gin, und der alkoholfreie Yuumi mit Ausz\u00fcgen aus der zitronen\u00e4hnlichen Yuzu-Frucht und Genmaicha, einer Verbindung aus gr\u00fcnem Tee und ger\u00f6stetem Reis. Nat\u00fcrlich findet sich dort auch eine Auswahl an Sakes wie der blumige Ohaku Umeshu oder der milde, dabei feinw\u00fcrzige Junmai Ginjo.\n\nAber an der Bar steht niemand, als an diesem Abend im Obergeschoss die eigentliche Sensation beginnt. Einige Mitarbeiter in schwarzen Hosenanz\u00fcgen kommen an dem Tisch mit dem riesigen Thunfisch zusammen und beginnen mit der Tuna Cutting Show: Sie \u00f6ffnen die Kiemen, trennen den Kopf vom Rumpf und beginnen, das Fleisch zu zerteilen. Einige der G\u00e4ste holen ihr Handy raus, andere schauen einfach nur zu, in den Gesichtern sieht man Verunsicherung und Faszination und alles dazwischen.\n\nNach ein paar Minuten ist die Show vorbei, der Fisch landet in der K\u00fcche und bald danach auf den Tischen: Auf eine herzhafte Misosuppe folgen Kompositionen wie der Thunfisch mit Tr\u00fcffeln und schwarzem Kaviar oder Nigiri, kleine Betten aus Reis, auf denen sich feine Streifen von Thunfisch und Lachs w\u00f6lben. Sie stehen dem w\u00fcrzig marinierten Tartar in R\u00f6llchen mit Gurken, Avocado und Sesam in nichts nach, aber der Favorit an diesem Abend ist f\u00fcr viele G\u00e4ste das Bluefin-Tartar - es liegt auf Shokupan, einem hellen, fast s\u00fc\u00dflichen Brot mit einer feinen Gitterstruktur, der franz\u00f6sischen Brioche nicht un\u00e4hnlich. In Aroma und Konsistenz ein \u00fcberraschendes und gelungenes Geschmackserlebnis.\n\nDie Tuna Cutting Show findet einmal im Monat statt und ist eine beliebte Darbietung, doch nicht jeder Gast mag Fisch. Die japanische K\u00fcche bietet viele Alternativen, die Sahoi nicht unbeachtet l\u00e4sst; alle drei Monate wechselt die Karte, erst im Herbst letzten Jahres waren die beiden Betreiber in Japan, um sich neue Ideen zu holen: \"Wir wollten unbedingt neue Inspirationen finden, haben uns viele L\u00e4den angeschaut und alles probiert\", sagt Khan Bui. \"Zur\u00fcck in Berlin mussten wir unsere Eindr\u00fccke sofort in unser Men\u00fc einflie\u00dfen lassen.\"\n\nSo finden sich dort jetzt Kreationen wie Rindercarpaccio mit Wei\u00dfkohl und Schnittlauch, gegrillter Schweinebauch mit Misobutter und Reis oder R\u00f6llchen mit Aal, Frischk\u00e4se und Teriyaki-Sauce.\n\nMan kann ein japanisches Restaurant wie das Sahoi verlassen, ohne ein Dessert genossen zu haben - aber warum sollte man? Das Men\u00fc endet heute mit einem Mochi, einer Halbkugel aus nussigem Klebreis, in der fruchtiges Himbeereis schlummert: ein lieblicher Abschluss f\u00fcr einen aufregenden Abend, an dem das K\u00fcchenteam gezeigt hat, was es kann. Und das ist eine Menge.\n\nWertung: 4/5\n\nSahoi. Linienstra\u00dfe 134, 10115 Berlin. \u00d6ffnungszeiten: Mo-Sa 18-23 Uhr. www.sahoi.club. Reservierungen \u00fcber die Website.",
        "source": {
          "uri": "berliner-zeitung.de",
          "dataType": "news",
          "title": "Berliner Zeitung"
        },
        "authors": [],
        "image": "https://berliner-zeitung.imgix.net/2025/05/07/80b7af0c-6b10-4859-b25e-80ba6c627d01.jpeg?w=1024&auto=format",
        "eventUri": null,
        "sentiment": null,
        "wgt": 484656457,
        "relevance": 1
      },
      {
        "uri": "8673411641",
        "lang": "deu",
        "isDuplicate": false,
        "date": "2025-05-11",
        "time": "10:23:31",
        "dateTime": "2025-05-11T10:23:31Z",
        "dateTimePub": "2025-05-11T10:22:51Z",
        "dataType": "news",
        "sim": 0,
        "url": "https://www.nordkurier.de/regional/guestrow/altes-hotel-war-schon-gaststaette-kino-und-disko-nun-hat-es-einen-neuen-besitzer-3571242",
        "title": "Altes Hotel war schon Gastst\u00e4tte, Kino und Disko: Nun hat es einen neuen Besitzer",
        "body": "Das Hotel \"Stadt G\u00fcstrow\" ist das erste Haus am Platze und bekommt eine neue Chance. Am Wochenende konnten Neugierige das Prunkst\u00fcck des Geb\u00e4udes, den gro\u00dfen Saal, besuchen.\n\nDas Hotel \"Stadt G\u00fcstrow\" am Marktplatz der Kreisstadt hat einen neuen Besitzer. Ein Rostocker Unternehmer kaufte das einstmals erste Haus am Platze. Am \"Tag der St\u00e4dtebauf\u00f6rderung\" am Sonnabend bot die Stadt eine Besichtigung des gro\u00dfen Saals, Prunkst\u00fcck des geschichtstr\u00e4chtigen Hauses, an. Dementsprechend gro\u00df war der Andrang von G\u00fcstrowern, mal wieder in das Geb\u00e4ude zu schauen. Der neue Besitzer war nicht da.\n\nEs gab kaum einen, der nicht ins Schw\u00e4rmen geriet, als er in dem gro\u00dfen Saal stand, war doch das Geb\u00e4ude mit mehreren S\u00e4len, Gastst\u00e4tte, \"Blauer Salon\", dem \"Capitol\" - anfangs als Kino, sp\u00e4ter als angesagte Diskothek - und dem Caf\u00e9 \"Borwin\" \u00fcber Jahrzehnte ein Treffpunkt f\u00fcr alle Generationen. Legend\u00e4r waren die Faschings- und Silvester-Partys mit bis zu 1000 Personen. Ungez\u00e4hlt sind die Betriebsfeste, Hochzeiten und Jugendweihefeiern, die dort stattfanden, aber auch manche SED-Tagung.\n\nEiner der Ersten, die am Sonnabend in die Vergangenheit eintauchten, war Kurt-Werner Langer. \"Ich war oft bei den Feiern oder im Caf\u00e9 ,Borwin'. Am 1. Mai konnte die Demonstration gar nicht schnell genug zu Ende gehen, weil es immer Aal gab\", erinnerte sich der 77-j\u00e4hrige G\u00fcstrower. Dass es um so etwas k\u00fcnftig nicht gehen werde, wisse er nat\u00fcrlich, meinte er lachend. \"Aber kann vieles andere wiederbelebt oder kann etwas anderes daraus werden?\", fragte sich nicht nur Kurt-Werner Langer nach der Besichtigung.\n\nLokale Fernsehsender hatten zuerst \u00fcber den Verkauf berichtet. Die zentrale Lage des Hauses und das historische Bauwerk hatten den Rostocker, der aus der Baubranche kommt, aber namentlich nicht genannt werden will, zum Kauf bewogen. Der Rostocker schw\u00e4rmt wie Kurt-Werner Langer von den Stuckelementen, der freitragenden Decke im gro\u00dfen Saal und den Logen im Saal. Was er aus dem Haus machen will, l\u00e4sst er noch offen, wollte sich auf Nachfrage nicht \u00e4u\u00dfern. Die M\u00f6glichkeiten, das Haus wieder mit Leben zu erf\u00fcllen, k\u00f6nnten jedoch vielf\u00e4ltig sein: Wohnungen, Hotel, L\u00e4den...\n\nSeit 2012 steht das Geb\u00e4ude gr\u00f6\u00dftenteils leer. Die G\u00fcstrower Hotel-Gruppe Hertzsch nutzt einen Teil als Hostel. Der Mietvertrag wird bis mindestens 2028 fortgesetzt. Jan Hendrik Hertzsch, Mit-Inhaber und einer der vier Gesch\u00e4ftsf\u00fchrer: \"Wir f\u00fchren das Sweet Dream Hostel seit 2018 mit einem Self-Check-In-Konzept. Die Gespr\u00e4che mit dem neuen Eigent\u00fcmer stimmen uns zuversichtlich, dass in Zukunft wieder mehr Leben in das historische Geb\u00e4ude einzieht und f\u00fcr die derzeit ungenutzten Fl\u00e4chen ein gutes Konzept entwickelt wird.\"\n\nInsbesondere der Leerstand im Erdgeschoss sei angesichts der tollen Lage am Marktplatz schade und biete nat\u00fcrlich Potenzial f\u00fcr eine Au\u00dfengastronomie, so Hertzsch. Davon w\u00fcrden, ist er \u00fcberzeugt, neben den eigenen \u00dcbernachtungsg\u00e4sten vor allem die Bewohner von G\u00fcstrow profitieren. \"Letztlich ist jede Belebung der Innenstadt ein Gewinn f\u00fcr die Stadt und auch ein Gewinn f\u00fcr die Region\", betont Jan Hendrik Hertzsch.\n\nAuch G\u00fcstrows B\u00fcrgermeister Sascha Zimmermann (FDP) hatte mit dem neuen Eigent\u00fcmer des Hotels bereits Kontakte. Er sagte seine Unterst\u00fctzung beim Vermitteln von Interessenten, die R\u00e4umlichkeiten in der Stadt suchen, und bei beh\u00f6rdlichen Antr\u00e4gen zu. \"Es wurden auch erste Nutzungsm\u00f6glichkeiten ausgetauscht, so dass ich f\u00fcr das Geb\u00e4ude Licht am Ende des Tunnels sehe\", antwortete der B\u00fcrgermeister auf Nachfrage.\n\nMit einer Nutzung in verschiedenster Weise w\u00fcrde das Haus wieder Bedeutung bekommen, wie es meist seit seiner Er\u00f6ffnung als \"Hotel Erbgro\u00dfherzog\" 1913 war. Verwaltet wurde es anfangs von Rudolf Zachow, der es wenig sp\u00e4ter kaufte. Bis in die 1950er-Jahre war das Haus als \"Zachow\" ein Begriff. Nach der Enteignung Rudolf Zachows kam es zur Volkseigenen Handelsorganisation (HO). Nach der Wende wurde das Haus von Investoren als Hotel und mit Gesch\u00e4ften umgebaut. Aus dem wunderbaren Saal wurde die Rezeption. Bis heute gab es mehrere Besitzer-Wechsel. Es war aber nicht mehr das Hotel der G\u00fcstrower, wie sie es kannten. Nun gibt es neue Hoffnung.",
        "source": {
          "uri": "nordkurier.de",
          "dataType": "news",
          "title": "Nordkurier Online"
        },
        "authors": [],
        "image": "https://cdn.nordkurier.de/2025/05/11/21f17083-1a77-4c8b-b94f-757e873d98ad.jpeg?rect=0%2C124%2C4683%2C2634&w=1200&auto=format",
        "eventUri": null,
        "sentiment": null,
        "wgt": 484655011,
        "relevance": 1
      },
      {
        "uri": "2025-05-716172184",
        "lang": "fra",
        "isDuplicate": false,
        "date": "2025-05-11",
        "time": "09:40:26",
        "dateTime": "2025-05-11T09:40:26Z",
        "dateTimePub": "2025-05-11T08:53:45Z",
        "dataType": "news",
        "sim": 0,
        "url": "https://www.lepetitjournal.net/40-landes/2025/05/11/un-retour-emouvant-sur-le-crash-des-bombardiers-americains/",
        "title": "Un retour \u00e9mouvant sur le crash des bombardiers am\u00e9ricains",
        "body": "La visite du Mus\u00e9e : Melodie Dudley ( \u00e9pouse de Bogie Dudley) - Devin Dudley ( \u00e9pouse d'Adam Dudley) - Adam Dudley ( petit-neveu du pilote Bayard Dudley) - Bogie Dudley ( neveu du pilote Bayard Dudley) - Christian Levaufre Membre de l'espace Patrimonial Rozanoff Cr\u00e9dits : Espace Patrimonial Rozanoff\n\nAu moment o\u00f9 les Landes s'appr\u00eatent \u00e0 comm\u00e9morer le 81\u1d49 anniversaire, non pas de la fin de la seconde guerre mondiale, mais de la fin des combats en Europe, il est utile de se souvenir que les jours de liesse de mai 1945 ont \u00e9t\u00e9, ici comme ailleurs, pr\u00e9c\u00e9d\u00e9s d'\u00e9v\u00e8nements dramatiques.\n\nLe 31 d\u00e9cembre 1943, un court combat a\u00e9rien dans le ciel landais va se conclure par le crash de deux bombardiers am\u00e9ricains et par celui d'au moins cinq chasseurs allemands.\n\nPour la 8\u1d49 US Army Air Force c'\u00e9tait la mission 171, la 171\u1d49 et derni\u00e8re mission de l'ann\u00e9e 1943. Une mission d'ampleur dont les multiples objectifs sont r\u00e9partis entre la r\u00e9gion parisienne et le sud-ouest. Pour la partie qui nous concerne, l'objectif principal est Bordeaux, la base a\u00e9rienne de M\u00e9rignac et la base sous-marine de Bacalan. Elles ne seront pas bombard\u00e9es ce jour-l\u00e0, car la m\u00e9t\u00e9o ne le permet pas et les appareils vont larguer leurs bombes sur le terrain de Cognac-Ch\u00e2teaubernard, leur objectif secondaire.\n\nEn provenance des bases a\u00e9riennes du sud-est de l'Angleterre, 571 bombardiers lourds (B-17 Flying Fortress et B-24 Liberator) accompagn\u00e9s par 548 chasseurs de protection prennent la direction de la France. \u00c0 l'approche du bassin d'Arcachon les radars c\u00f4tiers allemands, comme celui de Labenne, d\u00e9tectent leur arriv\u00e9e et les chasseurs allemands d\u00e9collent imm\u00e9diatement des bases \u00e0 proximit\u00e9 : Cazaux, Mont-de-Marsan, Biarritz...\n\nLe point de \" contact \" a lieu \u00e0 la verticale de Morcenx aux alentours de midi, deux bombardiers US sont abattus. Le premier, baptis\u00e9 \" Flak Rat \" se crashe \u00e0 Arjuzanx, le deuxi\u00e8me, baptis\u00e9 \" Oklahoma Okie \" explose en vol dans les environs de Lesperon. Sur les 20 hommes d'\u00e9quipage, 10 sont tu\u00e9s et les 10 autres vont conna\u00eetre des destins divers entre l'\u00e9vasion et le retour en Angleterre, les camps de prisonniers en Allemagne ou l'h\u00f4pital en France.\n\nPendant quelques ann\u00e9es les contacts d'amiti\u00e9 ont perdur\u00e9 entre les familles am\u00e9ricaines des membres d'\u00e9quipage et les familles fran\u00e7aises de ceux qui les avaient aid\u00e9s, puis, au fil du temps, les liens se sont distendus.\n\nEn 2003, l'Abb\u00e9 Devert r\u00e9dige un fascicule intitul\u00e9 \" le crash des forteresses \" et l'ann\u00e9e suivante, il fait \u00e9riger \u00e0 c\u00f4t\u00e9 de l'\u00e9glise de M\u00e9zos une st\u00e8le \u00e0 la m\u00e9moire des tu\u00e9s.\n\nUne autre personne s'int\u00e9resse \u00e0 cette histoire, il s'agit de Jean Darmant\u00e9 originaire de Morcenx, qui en publie tout d'abord un premier r\u00e9sum\u00e9 dans la revue des amis de Brassenx avant d'entreprendre la r\u00e9daction d'un livre \" Mission 171 \" o\u00f9 il rassemble un maximum d'informations sur tous les crashes de ce fatidique 31 d\u00e9cembre.\n\nMalheureusement, victime d'un AVC et dans l'impossibilit\u00e9 de terminer son ouvrage, un ou deux amis y mettront un point final avant de le faire publier au sein de l'AAL-ALDRES.\n\nLes 6 et 7 mai 2025, et pour la premi\u00e8re fois depuis 1943, les proches de Bayard Dudley \u00e9taient pr\u00e9sents \u00e0 Lesperon pour d\u00e9couvrir les lieux o\u00f9 leur oncle pilote a trouv\u00e9 la mort aux commandes de son B-17.\n\nOriginaires de Houston, \" Bogie \" et Adam Dudley (accompagn\u00e9s de Melodie et Devin, leurs \u00e9pouses respectives), tenaient depuis longtemps \u00e0 pouvoir rendre hommage \u00e0 cet oncle dont ils ont longuement entendu parler dans leur famille sans jamais le conna\u00eetre.\n\nApr\u00e8s une visite au milieu de la for\u00eat, l\u00e0 o\u00f9 les morceaux de l'appareil ont \u00e9t\u00e9 dispers\u00e9s, le petit groupe am\u00e9ricain accompagn\u00e9 par deux amis fran\u00e7ais ainsi que par un adjoint de la municipalit\u00e9 de Lesperon (dont l'oncle avait secouru un des membres d'\u00e9quipage bless\u00e9) a \u00e9t\u00e9 re\u00e7u \u00e0 la mairie de Lesperon pour une rencontre, un message de remerciement et un verre de l'amiti\u00e9.\n\nLa visite s'est termin\u00e9e par un moment de recueillement sur la st\u00e8le \u00e9rig\u00e9e \u00e0 M\u00e9zos en m\u00e9moire des disparus.\n\nLe lendemain matin, 7 mai, les deux couples US ont visit\u00e9 l'Espace Patrimonial Rozanoff o\u00f9 ce chapitre de l'histoire locale est r\u00e9sum\u00e9 sur plusieurs panneaux et o\u00f9 quelques pi\u00e8ces du crash sont expos\u00e9es.\n\nLa route de la libert\u00e9 a \u00e9t\u00e9 pav\u00e9e de milliers de morts anonymes, alors quand il est possible de mettre un nom sur un sacrifice particulier, il est logique de lui rendre l'hommage qui lui est d\u00fb.\n\nPour en apprendre davantage sur cette histoire ou sur d'autres pages de l'aviation locale, venez visiter l'Espace Patrimonial Rozanoff, le mus\u00e9e de la base a\u00e9rienne 118. https://epr118.fr/index.html\n\nCL",
        "source": {
          "uri": "lepetitjournal.net",
          "dataType": "news",
          "title": "Le Petit Journal"
        },
        "authors": [
          {
            "uri": "sophie_saint_martin@lepetitjournal.net",
            "name": "Sophie Saint-Martin",
            "type": "author",
            "isAgency": false
          }
        ],
        "image": "https://cdn.lepetitjournal.net/uploads/2025/05/Espace-Patrimonial-Rozanoff-07.05.2025-2-640x360.jpg",
        "eventUri": null,
        "sentiment": null,
        "wgt": 484652426,
        "relevance": 1
      },
      {
        "uri": "8673254178",
        "lang": "eng",
        "isDuplicate": true,
        "date": "2025-05-11",
        "time": "07:44:01",
        "dateTime": "2025-05-11T07:44:01Z",
        "dateTimePub": "2025-05-11T07:12:55Z",
        "dataType": "news",
        "sim": 0,
        "url": "https://www.forevernews.in/india/imd-forecast-for-early-monsoon-brightens-kuruvai-prospects-in-tns-cauvery-delta-871087",
        "title": "IMD forecast for early monsoon brightens Kuruvai prospects in TN's Cauvery delta",
        "body": "Chennai, May 11 (IANS) The Tamil Nadu government's decision to release water from the Mettur dam on the customary date of June 12, along with the India Meteorological Department (IMD) forecast of an early southwest monsoon, has boosted hopes for a significant increase in kuruvai paddy cultivation in the Cauvery delta region this year.\n\nFarmers and agricultural experts are optimistic that the acreage under cultivation will surpass last year's figures.\n\nMany farmers have already begun preparing their fields, skipping the second round of crops such as black gram and sesame to focus on kuruvai paddy.\n\nIt may be recalled that Water Resources Minister Durai Murugan, while responding to a calling attention motion in the Assembly on April 25, confirmed that water would be released from the Mettur dam on June 12 to support irrigation across the delta districts.\n\nThe current water level in the Mettur reservoir supports this plan. As of Saturday evening, the reservoir stood at 108.30 feet with a storage of 76 TMC, a significant improvement over last year's level of 51.81 feet (19 TMC) on the same date. In 2024, the low water level led to a 47-day delay in opening the dam, with water released only on July 28. The delay had severely affected farmers, especially in the tail-end areas like Nagapattinam, who were unable to take up kuruvai cultivation.\n\n\"With timely water release and the India Meteorological Department forecasting good rainfall in the Cauvery catchment areas, we expect a substantial increase in the kuruvai cultivation area this year,\" said P. Kalaivanan of the Tamil Nadu Senior Agro Technologists Forum.\n\nEchoing the sentiment, Orathanadu-based farmer Saravanan Rajan said, \"Farmers are preparing their fields early this year. Many have skipped second-season crops to focus on kuruvai.\"\n\nHe also urged the government to ensure an adequate supply of short-term paddy varieties and facilitate hassle-free access to crop loans.\n\nOfficials from the Agriculture and Farmers' Welfare Department confirmed that kuruvai acreage is likely to rise. Seeds of short-term paddy varieties, including ADT-53, Co-51, ASD-16, TPS-5, and Co-55, are being stocked at government depots.\n\nAdditional procurement will be made based on demand, they added.\n\n-IANS\n\naal/dpb",
        "source": {
          "uri": "forevernews.in",
          "dataType": "news",
          "title": "Forever NEWS"
        },
        "authors": [],
        "image": "https://www.forevernews.in/wp-content/uploads/2025/05/iainsimage-75.png",
        "eventUri": null,
        "sentiment": 0.2078431372549019,
        "wgt": 484645441,
        "relevance": 1
      },
      {
        "uri": "8673254182",
        "lang": "eng",
        "isDuplicate": true,
        "date": "2025-05-11",
        "time": "07:43:06",
        "dateTime": "2025-05-11T07:43:06Z",
        "dateTimePub": "2025-05-11T06:53:45Z",
        "dataType": "news",
        "sim": 0,
        "url": "https://www.forevernews.in/india/southwest-monsoon-likely-to-hit-kerala-by-may-27-says-imd-871102",
        "title": "Southwest monsoon likely to hit Kerala by May 27, says IMD",
        "body": "Thiruvananthapuram, May 11 (IANS) The India Meteorological Department (IMD) has predicted that the southwest monsoon is likely to hit Kerala on May 27, marking an early arrival compared to the normal onset date of June 1.\n\nIf the forecast holds, it would be the earliest monsoon onset over the Indian mainland since 2009, when it arrived on May 23.\n\nThe arrival of the monsoon in Kerala signals the beginning of the country's primary rainy season, which typically extends from June to September.\n\nThe IMD formally declares the onset of the monsoon once specific meteorological conditions are met over the southern state. From there, the monsoon generally spreads across the entire country by July 8, begins retreating from northwest India around September 17, and withdraws fully by October 15.\n\nIn recent years, the onset dates have varied. The monsoon reached Kerala on May 30 last year, on June 8 in 2023, May 29 in 2022, June 3 in 2021, and June 1 in 2020. In 2019, it arrived on June 8, while in 2018, it set in on May 29.\n\nAn IMD official clarified that the timing of the monsoon's arrival in Kerala does not directly correlate with the total rainfall expected during the season across the country.\n\n\"An early or late onset over Kerala doesn't necessarily mean the same for the rest of India. The monsoon system is influenced by large-scale atmospheric dynamics and regional weather patterns,\" the official said.\n\nThe IMD had earlier forecast above-normal cumulative rainfall for the 2025 southwest monsoon season, with rainfall expected to be around 105 per cent of the long-period average (LPA) of 87 cm -- within a model error margin of five per cent.\n\nThis forecast also indicates a minimal impact of El Nino conditions, which typically reduce rainfall in the Indian subcontinent.\n\nRainfall between 96 per cent and 104 per cent of the LPA (Long Period Average) is considered normal. Rainfall below 90 per cent is classified as deficient, between 90 per cent and 95 per cent as below normal, 105 to 110 per cent as above normal, and more than 110 per cent as excess.\n\nThe monsoon is critical for India's agriculture sector, which supports over 42 per cent of the population and contributes 18.2 per cent to the national GDP. It also plays a vital role in replenishing water reservoirs essential for drinking water and hydroelectric power.\n\n-IANS\n\naal/dpb",
        "source": {
          "uri": "forevernews.in",
          "dataType": "news",
          "title": "Forever NEWS"
        },
        "authors": [],
        "image": "https://www.forevernews.in/wp-content/uploads/2025/05/iainsimage-80.png",
        "eventUri": null,
        "sentiment": 0.0117647058823529,
        "wgt": 484645386,
        "relevance": 1
      }
    ],
    "totalResults": 1040,
    "page": 1,
    "count": 5,
    "pages": 208
  }
}