{
  "articles": {
    "results": [
      {
        "uri": "8673463855",
        "lang": "ita",
        "isDuplicate": false,
        "date": "2025-05-11",
        "time": "11:17:35",
        "dateTime": "2025-05-11T11:17:35Z",
        "dateTimePub": "2025-05-11T11:17:10Z",
        "dataType": "news",
        "sim": 0,
        "url": "https://www.corriere.it/esteri/25_maggio_11/putin-vuole-davvero-la-pace-la-conferenza-in-ritardo-i-foglietti-le-pressioni-di-trump-c89fcccc-5f36-4fbf-bd4d-4dc41dfbfxlk.shtml",
        "title": "Putin vuole davvero la pace? La conferenza in ritardo, i foglietti, le pressioni di Trump",
        "body": "Con tutta evidenza, quel messaggio alla nazione \u00e8 stato deciso e scritto all'ultimo minuto. C'\u00e8 stato un invito inatteso a una conferenza stampa, che poi \u00e8 stata rinviata di mezz'ora e poi di un'altra ora, e poi \u00e8 diventata la semplice lettura di una serie di foglietti, che Putin consultava spesso, non soltanto per leggere, ma per cambiare e modificarne il testo. Il presidente russo ama farsi attendere, ma non era questa l'occasione. Ci sono stati molti ripensamenti sul da farsi, e questo, almeno agli occhi di osservatori esterni, \u00e8 comunque un segnale del momento di incertezza che sta attraversando il Cremlino, uno stato d'animo ben diverso dalla granitica convinzione di appena dieci giorni fa, quando sembrava che la Russia potesse disporre a piacimento dell'erratica e remissiva strategia applicata dagli Usa nei suoi confronti.\n\nQuasi una improvvisazione, confermata dal fatto che Putin ha detto che avrebbe chiamato oggi Erdogan, per chiedergli la disponibilit\u00e0 a tenere i negoziati in quel di Istanbul. \u00c8 ben difficile credere che questa fretta nella risposta sia stata causata dal timore per la minaccia delle nuove sanzioni occidentali. Ormai la Russia \u00e8 vaccinata, e ha trascorso tre anni a raccontare alla sua gente che le misure punitive decise dall'Occidente non le facevano neanche il solletico, anzi. Inoltre, non c'\u00e8 pi\u00f9 molto che gli alleati europei e americani possano pi\u00f9 mettere su questo tavolo: le sanzioni sono un'arma ormai spuntata.\n\nPossibile invece che Putin abbia voluto mettere in risalto la debolezza dell'ultimatum giunto da Kiev, del quale non ha evidentemente gradito tempi e modi, e lo ha fatto ampiamente capire, citando solo i Paesi presenti alla parata del 9 maggio come \"volenterosi della pace\", oltre alla \"nuova amministrazione americana\".",
        "source": {
          "uri": "corriere.it",
          "dataType": "news",
          "title": "Corriere della Sera"
        },
        "authors": [],
        "image": "https://dimages2.corriereobjects.it/files/og_thumbnail/uploads/2025/05/10/681fb07db8236.jpeg",
        "eventUri": null,
        "sentiment": null,
        "wgt": 484658255,
        "relevance": 2
      },
      {
        "uri": "8673463614",
        "lang": "ces",
        "isDuplicate": true,
        "date": "2025-05-11",
        "time": "11:17:23",
        "dateTime": "2025-05-11T11:17:23Z",
        "dateTimePub": "2025-05-11T11:16:58Z",
        "dataType": "news",
        "sim": 0,
        "url": "https://zpravy.tiscali.cz/putin-navrhl-aby-se-15-kvetna-konala-v-istanbulu-prima-jednani-s-ukrajinou-593412",
        "title": "Putin navrhl, aby se 15. kv\u011btna konala v Istanbulu p\u0159\u00edm\u00e1 jedn\u00e1n\u00ed s Ukrajinou | Zpr\u00e1vy | Tiscali.cz",
        "body": "Rusk\u00fd prezident Vladimir Putin dnes navrhl, aby se 15.kv\u011btna uskute\u010dnily v Istanbulu bez p\u0159edb\u011b\u017en\u00fdch podm\u00ednek p\u0159\u00edm\u00e9 rozhovory s Ukrajinou. Informovaly o tom sv\u011btov\u00e9 agentury.\n\nHlava rusk\u00e9ho st\u00e1tu tak u\u010dinila pot\u00e9, co Moskvu v sobotu k bezpodm\u00edne\u010dn\u00e9mu 30denn\u00edmu p\u0159\u00edm\u011b\u0159\u00ed vyzval ukrajinsk\u00fd prezident Volodymyr Zelenskyj spolu s l\u00eddry Francie, N\u011bmecka, Brit\u00e1nie a Polska. Ukrajina se ji\u017e v\u00edce ne\u017e t\u0159i roky br\u00e1n\u00ed plo\u0161n\u00e9 rusk\u00e9 vojensk\u00e9 agresi.\n\n\"Nebylo to Rusko, kdo p\u0159eru\u0161il jedn\u00e1n\u00ed v roce 2022. Byl to Kyjev. Nicm\u00e9n\u011b navrhujeme, aby Kyjev obnovil p\u0159\u00edm\u00e1 jedn\u00e1n\u00ed bez jak\u00fdchkoliv p\u0159edb\u011b\u017en\u00fdch podm\u00ednek,\" citovala Putina agentura Reuters. \"Nab\u00edz\u00edme kyjevsk\u00fdm \u00fa\u0159ad\u016fm obnoven\u00ed jedn\u00e1n\u00ed ji\u017e ve \u010dtvrtek, a to v Istanbulu,\" dodal s t\u00edm, \u017ee rozhodnut\u00ed je nyn\u00ed na Ukrajin\u011b.\n\nNa n\u00e1vrh, kter\u00fd Putin u\u010dinil v p\u0159ibli\u017en\u011b 20minutov\u00e9m projevu dnes kr\u00e1tce po p\u016flnoci, Kyjev bezprost\u0159edn\u011b nereagoval.\n\nZelenskyj se v sobotu v Kyjev\u011b s francouzsk\u00fdm prezidentem Emmanuelem Macronem, n\u011bmeck\u00fdm kancl\u00e9\u0159em Friedrichem Merzem, britsk\u00fdm ministersk\u00fdm p\u0159edsedou Keirem Starmerem a polsk\u00fdm premi\u00e9rem Donaldem Tuskem shodli na nab\u00eddce p\u0159\u00edm\u011b\u0159\u00ed v boj\u00edch na Ukrajin\u011b, kter\u00e9 m\u00e1 bez p\u0159edb\u011b\u017en\u00fdch podm\u00ednek za\u010d\u00edt platit od pond\u011bl\u00ed 12. kv\u011btna a trvat p\u0159inejmen\u0161\u00edm 30 dn\u00ed. Evropa i Spojen\u00e9 st\u00e1ty podle nich zkoordinuj\u00ed nov\u00e9 rozs\u00e1hl\u00e9 sankce proti Rusku, pokud Putin p\u0159\u00edm\u011b\u0159\u00ed odm\u00edtne.\n\nKreml v prvn\u00ed reakci obvinil Evropany z konfronta\u010dn\u00edch prohl\u00e1\u0161en\u00ed a prohl\u00e1sil, \u017ee se Rusko nenech\u00e1 sankcemi zastra\u0161it.\n\nPutin dnes tak\u00e9 uvedl, \u017ee \u00fa\u010delem p\u0159\u00edm\u00fdch jedn\u00e1n\u00ed s Ukrajinou je \"odstranit z\u00e1kladn\u00ed p\u0159\u00ed\u010diny konfliktu\" a dos\u00e1hnout \"dlouhodob\u00e9ho, trval\u00e9ho m\u00edru pro historickou perspektivu\", nikoliv pouze p\u0159eru\u0161en\u00ed boj\u016f za \u00fa\u010delem op\u011btovn\u00e9ho vyzbrojen\u00ed.\n\n\"Nevylu\u010dujeme, \u017ee b\u011bhem t\u011bchto jedn\u00e1n\u00ed bude mo\u017en\u00e9 dohodnout n\u011bjak\u00e1 nov\u00e1 p\u0159\u00edm\u011b\u0159\u00ed, nov\u00fd klid zbran\u00ed,\" \u0159ekl Putin. Boje na Ukrajin\u011b v n\u011bm ozna\u010dil slovem v\u00e1lka, nikoliv jen speci\u00e1ln\u00ed vojenskou operac\u00ed, co\u017e je v Rusku ofici\u00e1ln\u00ed term\u00edn pro invazi na Ukrajinu.\n\nPutin tak\u00e9 uvedl, \u017ee je\u0161t\u011b dnes bude hovo\u0159it s tureck\u00fdm prezidentem Recepem Tayyipem Erdoganem o zprost\u0159edkov\u00e1n\u00ed rozhovor\u016f, kter\u00e9 by podle n\u011bj mohly v\u00e9st k p\u0159\u00edm\u011b\u0159\u00ed.\n\nRozhovory mezi Ukrajinou a Ruskem za\u010daly kr\u00e1tce pot\u00e9, co v \u00fanoru 2022 rusk\u00e1 vojska na Putin\u016fv pokyn v pln\u00e9m rozsahu vpadla do sousedn\u00ed zem\u011b. Jedn\u00e1n\u00ed ale Ukrajina p\u0159eru\u0161ila, kdy\u017e po \u00fastupu rusk\u00fdch vojsk od Kyjeva na ja\u0159e 2022 vy\u0161ly najevo masov\u00e9 vra\u017edy a dal\u0161\u00ed zv\u011brstva, kter\u00fdch se b\u011bhem kr\u00e1tk\u00e9 okupace dopustili ru\u0161t\u00ed voj\u00e1ci v okol\u00ed ukrajinsk\u00e9 metropole.\n\nRusko v chystan\u00e9 dohod\u011b z Istanbulu po\u017eadovalo, aby se Ukrajina zav\u00e1zala k neutralit\u011b, z\u0159ekla se vstupu do NATO, omezila velikost sv\u00fdch ozbrojen\u00fdch sil a ud\u011blila v\u00fdchodn\u00ed Ukrajin\u011b zvl\u00e1\u0161tn\u00ed postaven\u00ed. Ukrajinsk\u00fd prezident Zelenskyj dal jasn\u011b najevo, \u017ee je proti takov\u00fdm z\u00e1vazk\u016fm.\n\nLoni v \u010dervnu Putin uvedl, \u017ee Ukrajina mus\u00ed ofici\u00e1ln\u011b upustit od sv\u00fdch snah o vstup do Severoatlantick\u00e9 aliance a st\u00e1hnout sv\u00e9 voj\u00e1ky ze \u010dty\u0159 ukrajinsk\u00fdch oblast\u00ed, kter\u00e9 Rusko v rozporu s mezin\u00e1rodn\u00edm pr\u00e1vem anektovalo a kter\u00e9 ve v\u0161ech p\u0159\u00edpadech kontroluje pouze z\u010d\u00e1sti.",
        "source": {
          "uri": "zpravy.tiscali.cz",
          "dataType": "news",
          "title": "Tiscali.cz"
        },
        "authors": [],
        "image": "https://im.tiscali.cz/press/2025/05/11/1727295-profimedia-0993080880-base_16x9.jpg.1152?1746960455.0",
        "eventUri": null,
        "sentiment": null,
        "wgt": 484658243,
        "relevance": 1
      },
      {
        "uri": "8673462211",
        "lang": "ita",
        "isDuplicate": false,
        "date": "2025-05-11",
        "time": "11:17:18",
        "dateTime": "2025-05-11T11:17:18Z",
        "dateTimePub": "2025-05-11T11:15:47Z",
        "dataType": "news",
        "sim": 0.4588235318660736,
        "url": "https://www.informazione.it/a/7EDBE535-D0A0-4B64-88B3-BF400FC6DBEF/Tregua-tra-India-e-Pakistan-regge-ma-i-deputati-indiani-criticano-Trump",
        "title": "Tregua tra India e Pakistan regge, ma i deputati indiani criticano Trump",
        "body": "Nonostante le reciproche accuse di violazioni, il cessate il fuoco tra India e Pakistan sembra resistere, con segnali di normalizzazione che arrivano dalle zone pi\u00f9 calde del confine. Secondo il Times of India, la situazione appare tranquilla a Srinagar, Akhnoor, Rajouri e Poonch, oltre che nella citt\u00e0 di Jammu, dopo una giornata segnata da intensi bombardamenti provenienti dal territorio pakistano.\n\nL'accordo, raggiunto ieri grazie alla mediazione statunitense, aveva posto fine - almeno formalmente - a settimane di scontri che hanno causato 66 vittime civili. La crisi era esplosa il 22 aprile, quando un attentato terroristico in Kashmir aveva ucciso 26 turisti indiani, spingendo Nuova Delhi a lanciare l'\"Operazione Sindoor\", una serie di raid aerei oltre confine contro presunti gruppi sostenuti da Islamabad.\n\nMa la tregua, annunciata con enfasi da Donald Trump su Truth Social - dove il presidente americano aveva scritto di un \"PIENO E IMMEDIATO CESSATE IL FUOCO\" - \u00e8 durata poche ore. Nella notte, colpi di contraerea hanno squarciato il cielo di Srinagar, in risposta a quello che le autorit\u00e0 indiane hanno definito l'avvistamento di droni pakistani. Omar Abdullah, primo ministro di Jammu e Kashmir, ha confermato le esplosioni, affermando senza mezzi termini: \"Questo non \u00e8 un cessate il fuoco\".\n\nLa fragile calma arriva dopo che il Pakistan aveva lanciato l'operazione \"Bunyan-un-marsoos\", una risposta militare su media scala minacciata da giorni. Se da un lato le parti sembrano voler evitare un'ulteriore escalation, dall'altro la diffidenza reciproca resta palpabile. Intanto, a Nuova Delhi, diversi deputati hanno criticato Trump per aver reso pubblico l'accordo prima di un annuncio ufficiale da parte dei governi coinvolti, interpretando la mossa come un'ingerenza nella sovranit\u00e0 nazionale.",
        "source": {
          "uri": "informazione.it",
          "dataType": "news",
          "title": "informazione interno"
        },
        "authors": [],
        "image": "https://q2.informazione.it/pics/f2bf89b3-2e9f-4eae-80e4-5cb0fc23d282.jpg",
        "eventUri": "eng-10597631",
        "sentiment": null,
        "wgt": 484658238,
        "relevance": 1
      },
      {
        "uri": "8673462217",
        "lang": "ita",
        "isDuplicate": false,
        "date": "2025-05-11",
        "time": "11:16:45",
        "dateTime": "2025-05-11T11:16:45Z",
        "dateTimePub": "2025-05-11T11:15:48Z",
        "dataType": "news",
        "sim": 0.4980392158031464,
        "url": "https://www.informazione.it/a/A842787D-BD7D-43D3-8228-DAAE0D07B318/Accordo-India-Pakistan-Trump-Ora-scambi-commerciali-ma-la-tregua-e-stata-violata-Pakistan-apprezziamo-aiuto-di-Trump-e-paesi-amici-sul-Kashmir",
        "title": "Accordo India-Pakistan. Trump: \"Ora scambi commerciali\", ma la tregua \u00e8 stata violata - Pakistan: apprezziamo aiuto di Trump e paesi amici sul Kashmir",
        "body": "Le forze armate indiane hanno lanciato l'\"Operazione Sindoor\" Le forze armate indiane hanno lanciato l'\"Operazione Sindoor\", colpendo nove siti considerati terroristici in Pakistan e nel Jammu e Kashmir occupato dal Pakistan, ha dichiarato il governo in un comunicato, aggiungendo che nessuna struttura militare pakistana \u00e8 stata presa di mira. L'India ha sparato missili attraverso il confine nel territorio controllato dal Pakistan in almeno tre punti all'inizio di mercoled\u00ec, uccidendo un bambino e ferendo altre due persone, hanno dichiarato funzionari della sicurezza pakistana. (RaiNews)\n\nNe parlano anche altre testate\n\nLo definiscono \"bellicoso\", amante del pugno duro e poco moderato. Asim Munir \u00e8 il Capo di Stato maggiore dell'esercito pakistano, l'uomo incaricato dal governo di Islamabad di reagire agli attacchi dell'India e rispondere colpo su colpo alle mosse di Delhi. (il Giornale)\n\nPoche ore dopo che India e Pakistan avevano concordato un \"cessate il fuoco immediato\", sono stati visti colpi di arma da fuoco sparati nei cieli di Srinagar, nello stato di Jammu e Kashmir come risposta a presunti droni pakistani. (la Repubblica)\n\nL'Esercito indiano ha dichiarato di aver subito una nuova serie di attacchi dal Pakistan, anche con droni, in diversi punti lungo il suo confine occidentale. Allo stesso tempo, i giornalisti della Afp hanno udito forti esplosioni a Srinagar, la principale citt\u00e0 del Kashmir amministrato dall'India. (la Repubblica)\n\nFesteggiamenti in strada nella capitale del Pakistan, Islamabad, dopo il raggiungimento dell'accordo di cessate il fuoco con l'India che potrebbe mettere fine alla pi\u00f9 grave escalation delle tensioni tra i due Paesi degli ultimi anni. (lapresse.it)\n\nNella mattinata Islamabad aveva lanciato il suo contrattacco di risposta \"all'aggressione indiana\", colpendo l'aeroporto di Pathankot e la base aerea di Udhampur in una rappresaglia definita \"occhio per occhio\". (Tgcom24)\n\nIl governo indiano ha subito identificato tre potenziali sospetti, e ha ipotizzato un coinvolgimento dell'esercito pakistano nella vicenda. (RaiNews)",
        "source": {
          "uri": "informazione.it",
          "dataType": "news",
          "title": "informazione interno"
        },
        "authors": [],
        "image": "https://q2.informazione.it/pics/f2bf89b3-2e9f-4eae-80e4-5cb0fc23d282.jpg",
        "eventUri": "eng-10597631",
        "sentiment": null,
        "wgt": 484658205,
        "relevance": 5
      },
      {
        "uri": "8673462181",
        "lang": "ita",
        "isDuplicate": true,
        "date": "2025-05-11",
        "time": "11:16:15",
        "dateTime": "2025-05-11T11:16:15Z",
        "dateTimePub": "2025-05-11T11:08:19Z",
        "dataType": "news",
        "sim": 0,
        "url": "https://ildispaccio.it/calabria/catanzaro/2025/05/11/elezioni-a-lamezia-terme-tridico-m5s-avverte-la-citta-ha-bisogno-di-un-sindaco-come-lo-moro-che-garantisca-legalita-trasparenza-e-linteresse-pubblico/",
        "title": "Elezioni a Lamezia Terme, Tridico (M5S) avverte: \"La citt\u00e0 ha bisogno di un sindaco come Lo Moro, che garantisca legalit\u00e0, trasparenza e l'interesse pubblico\" - IlDispaccio",
        "body": "\"A Lamezia Terme abbiamo una candidata di primissimo piano, Doris Lo Moro, che ha una lunga storia di impegno per i diritti, la legalit\u00e0, il riscatto e il progresso della cittadinanza. La sosteniamo convintamente e con una lista di qualit\u00e0, perch\u00e9 Doris incarna in pieno i nostri valori\". L'ha detto a Lamezia Terme, nella serata di sabato 10 maggio, l'europarlamentare M5S Pasquale Tridico, intervenuto insieme a Doris Lo Moro, l\u00ec candidata a sindaca, a un'iniziativa del Gruppo territoriale M5S lametino sulle tre dimensioni della sostenibilit\u00e0 nel contesto locale: ambientale, economica e sociale. All'iniziativa hanno partecipato i candidati M5S per le Comunali, la deputata Anna Laura Orrico, coordinatrice regionale del Movimento, il coordinatore provinciale Luigi Stranieri e una folla di cittadini. \"Non si pu\u00f2 dimenticare - ha sottolineato Tridico - che i lametini hanno dovuto subire sulle loro spalle lo scioglimento per infiltrazioni mafiose, addirittura tre volte, con tutte le gravi conseguenze. La citt\u00e0 ha dunque bisogno di essere amministrata da una persona affidabile, competente e con la legalit\u00e0 nel proprio Dna, in grado di garantire trasparenza, pulizia e l'interesse pubblico. Questa persona c'\u00e8 e - ha sottolineato l'europarlamentare - si chiama Doris Lo Moro, con cui avremo un collegamento fisso per realizzare progetti di sviluppo vero. Con l'associazione Asprom sto lavorando perch\u00e9 il Mezzogiorno, e in particolare la Calabria, non perda le risorse europee ma le usi per uscire dalla marginalit\u00e0 e per contrastare lo spopolamento in corso, dovuto alla mancanza di lavoro e sanit\u00e0, di diritti e servizi irrinunciabili\". \"In risposta all'assassinio di due netturbini, qui - ha ricordato la candidata Lo Moro, che ha ringraziato il Movimento Cinque Stelle per il sostegno immediato - creammo la Multiservizi per gestire la raccolta rifiuti. Poi ottenemmo uno sviluppo dal basso con i Patti territoriali. Con l'onorevole Tridico, il Movimento e l'intera coalizione, sapremo lavorare in stretta sinergia e sempre per il bene di tutti, non per tutelare interessi di singoli. Io - ha concluso - non ho bisogno di nulla. Ho solo il desiderio di vedere un cambiamento reale che porti i giovani a restare, a non partire\".",
        "source": {
          "uri": "ildispaccio.it",
          "dataType": "news",
          "title": "Il Dispaccio"
        },
        "authors": [],
        "image": null,
        "eventUri": null,
        "sentiment": null,
        "wgt": 484658175,
        "relevance": 1
      }
    ],
    "totalResults": 302479,
    "page": 1,
    "count": 5,
    "pages": 60496
  }
}