{
  "articles": {
    "results": [
      {
        "uri": "8677872552",
        "lang": "slv",
        "isDuplicate": false,
        "date": "2025-05-14",
        "time": "09:20:29",
        "dateTime": "2025-05-14T09:20:29Z",
        "dateTimePub": "2025-05-14T09:20:00Z",
        "dataType": "news",
        "sim": 0,
        "url": "https://www.gorenjskiglas.si/sta/izrael-prestregel-hutijevsko-raketo-in-jemence-pozval-k-evakuaciji-tel-aviv-270720/",
        "title": "Izrael prestregel hutijevsko raketo in Jemence pozval k evakuaciji Tel Aviv",
        "body": "Izraelska vojska je danes prestregla raketo, izstreljeno iz Jemna. Odgovornost za napad so prevzeli tamkaj\u0161nji hutijevci, ki trdijo, da gre za njihov tretji napad na Izrael v manj kot 24 urah. V odzivu je Izrael dr\u017eavljane Jemna pozval, naj se izogibajo pristani\u0161\u010dem pod nadzorom hutijevcev. Te je izraelska vojska v preteklosti ve\u010dkrat napadla.***\n\n\\\"Po sirenah, ki so se pred kratkim oglasile na ve\u010d obmo\u010djih v Izraelu, je bila prestre\u017eena raketa, izstreljena iz Jemna,\\\" je sporo\u010dila izraelska vojska. Kmalu po napadu so odgovornost zanj prevzeli hutijevci, ki trdijo, da so napadli letali\u0161\u010de Ben Gurion pri Tel Avivu.\n\nIzraelska vojska je pozneje dr\u017eavljane Jemna opozorila, naj se izogibajo trem pristani\u0161\u010dem pod nadzorom hutijevcev, navaja francoska tiskovna agencija AFP.\n\n\\\"Zaradi uporabe pristani\u0161\u010d s strani teroristi\u010dnega re\u017eima hutijevcev (...) pozivamo vse ljudi, ki se nahajajo v teh pristani\u0161\u010dih, da se (...) evakuirajo,\\\" je na omre\u017eju X zapisal tiskovni predstavnik vojske. Pri tem je omenil pristani\u0161\u010da Hodejda, Ras Isa in Salif.\n\nNapad hutijevcev je med obiskom v Tokiu obsodil izraelski zunanji minister Gideon Sar in opozoril, da raketna gro\u017enja iz Jemna ovira vsakdanje \u017eivljenje Izraelcev.\n\n\\\"Medtem ko poteka ta novinarska konferenca, v Jeruzalemu in sredi\u0161\u010du Izraela odmevajo sirene zaradi raket, ki jih izstreljujejo hutijevci v Jemnu. Milijoni Izraelcev zdaj be\u017eijo v zakloni\u0161\u010da, in to v \u010dasu, ko gredo otroci v \u0161ole ali vrtce,\\\" je dodal.\n\nJemenski hutijevci od za\u010detka vojne v Gazi redno izvajajo napade na Izrael. Iz solidarnosti s Palestinci v Gazi prav tako ovirajo pomorski promet ob obalah Jemna. (konec)rpe/msc STA075 2025-05-14/10:54",
        "source": {
          "uri": "gorenjskiglas.si",
          "dataType": "news",
          "title": "Gorenjski Glas"
        },
        "authors": [],
        "image": "https://www.gorenjskiglas.si/media/2025/05/14//H--1245.webp",
        "eventUri": null,
        "sentiment": null,
        "wgt": 484910429,
        "relevance": 3
      },
      {
        "uri": "8677870869",
        "lang": "lav",
        "isDuplicate": false,
        "date": "2025-05-14",
        "time": "09:19:23",
        "dateTime": "2025-05-14T09:19:23Z",
        "dateTimePub": "2025-05-14T08:12:43Z",
        "dataType": "news",
        "sim": 0,
        "url": "https://www.lsm.lv/raksts/kultura/muzika/14.05.2025-tuvojas-10-smagas-muzikas-un-vestures-festivals-zobens-un-lemess-izzinota-programma.a598984/",
        "title": "Tuvojas 10. smag\u0101s m\u016bzikas un v\u0113stures festiv\u0101ls \"Zobens un lemess\". Izzi\u0146ota programma",
        "body": "No 6. l\u012bdz 8. j\u016bnijam Bauskas pilskalna park\u0101 notiks desmitais smag\u0101s m\u016bzikas un dz\u012bv\u0101s v\u0113stures festiv\u0101ls \"Zobens un lemess\". Tr\u012bs dien\u0101s br\u012bv\u0101 gaisotn\u0113 uz skatuves k\u0101ps da\u017e\u0101du met\u0101lm\u016bzikas \u017eanru grupas no Sp\u0101nijas, Zviedrijas, Somijas, Ukrainas, Polijas, Lietuvas un Latvijas. Pirmo reizi Latvij\u0101 uzst\u0101sies apvien\u012bbas \"Dymna Lotva\" un \"Severoth\". Liel\u0101kie festiv\u0101la m\u0101kslinieki \u0161ogad ir \"Avulsed\" un \"Archgoat\", inform\u0113 festiv\u0101la r\u012bkot\u0101ji.\n\nPar senatn\u012bgu gaisotni r\u016bp\u0113sies v\u0113stures rekonstruktoru klubi no Baltijas valst\u012bm, kuriem \u0161ogad piepulc\u0113jas ar\u012b Somijas p\u0101rst\u0101vji. Jaunums \u0161ogad festiv\u0101l\u0101 ir divi tematiski las\u012bjumi cikli - sestdien \"Par br\u012bv\u012bbu\" (par zemga\u013ciem, zemessargiem, str\u0113lniekiem, nacion\u0101lajiem partiz\u0101niem), sv\u0113tdien - \"Par sakn\u0113m\" (ko \u0113da Livonij\u0101, k\u0101 zemga\u013ci izmantoja \u016bdensce\u013cus, k\u0101da bija viduslaiku ska\u0146u pasaule, k\u0101 m\u016bsdien\u012bgi kart\u0113 pilskalnus).\n\nK\u0101 skaidro festiv\u0101la r\u012bkot\u0101ji, \"Zobens un lemess\" ir vieta, kur satiekas met\u0101lm\u016bzikas \u017eanri un kas k\u013c\u016bst par tiltu starp vair\u0101ku paaud\u017eu apmekl\u0113t\u0101jiem, v\u0113sturi un tagadni, baltu sakn\u0113m un m\u016bsdienu kult\u016bras praks\u0113m. \"Zobens un lemess\" rada alternat\u012bvu gaisotni un br\u012bvu telpu, kur\u0101 kult\u016bras mantojums satiekas ar ekstr\u0113mo m\u016bziku, radot neform\u0101lu vidi ar savu st\u0101stu un gaisotni.\n\nIeeja festiv\u0101la teritorij\u0101 un tel\u0161u pils\u0113ti\u0146\u0101 no piektdienas, 6. j\u016bnija, pulksten 15.00. Pievakar\u0113 sagaid\u0101ms uguns ritu\u0101ls - simboliska desmit\u0101 festiv\u0101la Sen\u0101 ciema atkl\u0101\u0161ana.\n\nFestiv\u0101l\u0101 uzst\u0101sies gan paz\u012bstami m\u016bzi\u0137i, gan ar\u012b jaun\u0101kas grupas, kur\u0101m, k\u0101 nor\u0101da festiv\u0101la p\u0101rst\u0101vji, ir potenci\u0101ls k\u013c\u016bt par interesantu jaunatkl\u0101jumu. Koncertprogramma aptvers da\u017e\u0101dus \u017eanrus, s\u0101kot no folkm\u016bzikas un postfolka l\u012bdz folkmet\u0101lam un citu met\u0101la \u017eanru jaud\u012bg\u0101kaj\u0101m izpausm\u0113m. Da\u017e\u0101d\u012bb\u0101 ir ar\u012b vienojo\u0161ais elements - da\u013cai m\u016bzi\u0137u dai\u013crad\u0113 rakstur\u012bgi saskares punkti ar etnisko m\u016bziku, folkloru, mitolo\u0123iju, pag\u0101nismu, v\u0113sturi un dabas izj\u016btu un t\u0101s izpausm\u0113m \u0161odienas interpret\u0101cij\u0101s.\n\n\"M\u0113s netiecamies p\u0113c \u013coti ska\u013ciem v\u0101rdiem, kuru d\u0113\u013c festiv\u0101ls b\u016btu spiests s\u0101kt iet kompromisu un komerci\u0101lu ce\u013cu - tas noz\u012bm\u0113tu nok\u013c\u016bt sist\u0113m\u0101, augst\u0101kas bi\u013ce\u0161u cenas, savas noska\u0146as zaud\u0113\u0161anu,\" uzsver festiv\u0101la r\u012bkot\u0101js Valdis B\u0113rzvads, \"tas ir mazs festiv\u0101ls, kur\u0101 tev ir iesp\u0113ja satikt m\u016bzi\u0137us st\u0101vot rind\u0101 p\u0113c alus un p\u0113c tam v\u0113l uzsp\u0113l\u0113t ar vi\u0146iem futbolu.\n\n\"Zobens un lemess\" ir par labu smago m\u016bziku un autentisku gaisotni.\n\nT\u0101p\u0113c ar\u012b izce\u013cam pagr\u012bdes skatuves v\u0101rdus - starp tiem ir muzik\u0101li t\u012brrad\u0146i un v\u0113l neizsmelta jauda rad\u012bt. Met\u0101lm\u016bzikas fani nov\u0113rt\u0113 festiv\u0101la \u012bpa\u0161o atmosf\u0113ru, dal\u012bbnieku atdevi, \u012bstumu un savu ce\u013cu m\u016bzik\u0101.\"\n\nFestiv\u0101l\u0101 gaid\u012bti t\u0101di dal\u012bbnieki, kas Latvij\u0101 uzst\u0101sies pirmoreiz - Sp\u0101nijas death metal smagsvari \"Avulsed\" un somu kulta blekmet\u0101la apvien\u012bba \"Archgoat\". B\u016bs zviedru dr\u016bmmet\u0101la meistari \"Isole\", kuru dal\u012bbnieki paz\u012bstami ar\u012b no grupas \"Ereb Altor\" un kas sniedz izcili atmosf\u0113risku muzik\u0101lu ce\u013cojumu. Ukrainu p\u0101rst\u0101v\u0113s grupa \"Khors\" ar jaun\u0101 albuma \"Letters to the Future Self\" koncertprogrammu, death metal \u017eanra p\u0101rst\u0101vji \"Orbstruct\", k\u0101 ar\u012b \"Severoth\" (\u0161obr\u012bd Polija) - atmosf\u0113risks blekmet\u0101la projekts, kuri Latvij\u0101 ar\u012b uzst\u0101sies pirmo reizi.\n\nFestiv\u0101la p\u0101rst\u0101vji sola, ka apvien\u012bbas \"Dymna Lotva\" m\u016bzika uz skatuves ienes sak\u0101pin\u0101tas emocijas, dramatismu un eksploz\u012bvu ener\u0123iju. Grupa dibin\u0101ta Baltkrievij\u0101, bet \u0161obr\u012bd dz\u012bvo Polij\u0101 - dal\u012bbnieki akt\u012bvi atbalst\u012bja protestus Baltkrievij\u0101; p\u0113c to apspie\u0161anas, lai izvair\u012btos no re\u017e\u012bma politisk\u0101s vaj\u0101\u0161anas, da\u013cai m\u016bzi\u0137u n\u0101c\u0101s b\u0113gt uz Ukrainu. 2022. gad\u0101 grupas p\u0101rst\u0101vjiem izdev\u0101s atkalapvienoties Var\u0161av\u0101. M\u016bzik\u0101 savij dr\u016bmmet\u0101lu un postblekmet\u0101lu, sapludinot to ar folkm\u016bzikas un depres\u012bv\u0101 blekmet\u0101la nians\u0113m un sp\u0113l\u0113 neaizmirstamus koncertus.\n\n2025. gad\u0101 uz \"Zobens un lemess\" skatuves sare\u017e\u0123\u012btos apst\u0101k\u013cos atgriez\u012bsies le\u0123end\u0101r\u0101 pag\u0101n/folk/dr\u016bmmet\u0101la grupa \"Gods Tower\", kur\u0101 sp\u0113l\u0113 dal\u012bbnieki no Baltkrievijas un Lietuvas un kas uzst\u0101j\u0101s pirmaj\u0101 \"Zobens un lemess\" festiv\u0101l\u0101 2015. gad\u0101 S\u0113lij\u0101. Grupas l\u012bderim 2021. gad\u0101 tika piespriests cietumsods par augsta ranga Baltkrievijas politi\u0137a, Gome\u013cas apgabala vad\u012bt\u0101ja rupju aizvaino\u0161anu, sal\u012bdzinot vi\u0146u ar vepri. \"Gods Tower\" skan\u0113jumu raksturo v\u0113stures un mitolo\u0123ijas tematika, kas caurvij gan smagn\u0113jo instrument\u0101lo izpild\u012bjumu, gan liriku. Maija nogal\u0113 \"Gods Tower\" dosies t\u016br\u0113 \"End of All Times\", un past\u0101v ba\u017eas, ka tie var k\u013c\u016bt par grupas atvadu koncertiem.\n\nStarp muzik\u0101lajiem notikumiem j\u0101izce\u013c pa\u0161m\u0101ju dr\u016bmmet\u0101la grupa \"Druun\", kas sniegs koncertprogrammu par godu devi\u0146desmito gadu kulta grupas \"Grindmaster Dead\" albumam \"Stronger Than Love\".\n\nLatvijas met\u0101lskatuvi v\u0113l p\u0101rst\u0101v\u0113s dr\u016bmmet\u0101la klasi\u0137i \"Frailty\" un \"M\u0101ra\", kuras vok\u0101liste M\u0101ra Lisenko iek\u013cuvusi daudzu \"Best Female Metal Vocalists\" aptauju aug\u0161gal\u0101. Pagr\u012bdes m\u016bzikas klasi\u0137i \"S.A.D.\" uzst\u0101sies ar \"Skumju akme\u0146u\" koncertprogrammu, b\u016bs ar\u012b postfolkloras grupa \"Kaligo\", psihed\u0113lisk\u0101s m\u016bzikas un smag\u0101 roka apvien\u012bba \"Asinis\" un blackened doom projekts \"Eremos\", kas \u0161ogad s\u0101kusi koncert\u0113t ar\u012b k\u0101 grupa. Lietuvu p\u0101rst\u0101v\u0113s \"Gyvata\" no Kaip\u0113das.\n\nFestiv\u0101l\u0101 uzst\u0101sies ar\u012b Juris Kaukulis ar \"Rokkoncerts Solo\", Dambis no \"Inokentija M\u0101rpla\" ar akustisko programmu, \"Gleb Belyaev Piano Metal Covers\" un \"Father Andy\".\n\nV\u0113stures rekonstruktoru un amatnieku nometne interesentus gaid\u012bs sestdien, 7. j\u016bnij\u0101, no pulksten 10. \"Liels un mazs var\u0113s l\u012bdzdarboties - viss ir apskat\u0101ms, aptaust\u0101ms, iztauj\u0101jams un piem\u0113r\u0101ms,\" apmekl\u0113t\u0101jus aicina piedal\u012bties v\u0113stures rekonstrukcijas kluba \"Exercitus Rigensis\" vad\u012bt\u0101js Juris \u0145e\u010dajevs. B\u016bs iesp\u0113ja v\u0113rot zobenc\u012b\u0146u paraugdemonstr\u0113jumus un piedal\u012bties darbn\u012bc\u0101s, izgatavot seno rotu replikas, izm\u0113\u0123in\u0101t d\u016bdu sp\u0113li, piedal\u012bties r\u012bkles dzied\u0101\u0161anas konkurs\u0101 vai v\u0113rot bronzas lie\u0161anu.\n\nB\u016bs ar\u012b neform\u0101la lekcija par vikingu laikmeta kaujas taktiku, kuru st\u0101st\u012bs v\u0113sturnieks Harri Hihnala (\"Finnish Vanguard\", Somija), \u0123\u0113rbies autentisk\u0101 karav\u012bra t\u0113rp\u0101. T\u0101 k\u0101 daudzi vec\u0101ki uz pas\u0101kumu \u0146em l\u012bdzi b\u0113rnus, j\u0101atz\u012bm\u0113 ar\u012b , ka ieeja br\u012bva l\u012bdz 12 gadu vecumam ieskaitot un \u0161ogad \u012bpa\u0161i b\u016bs piedom\u0101ts par jaun\u0101s paaudzes iesaist\u012b\u0161anu un rado\u0161\u0101m nodarb\u0113m.\n\nB\u016bs ar\u012b ugunsc\u012b\u0146as, bet nakt\u012b uz 8. j\u016bniju tiks aizdegta m\u0101kslinieka Andra D\u017eiguna veidot\u0101 vides ugunsskulpt\u016bra \"Ugunsku\u0123is\". Skulpt\u016bras veidolam m\u0101kslinieks iedvesmojies no dzelzs laikmeta j\u016brasbrauc\u0113ju ku\u0123iem un simboliski atsaucas uz \u016bdensce\u013cu noz\u012bmi Zemgales senatn\u0113.\n\nSestdien notiks \u010detri tematiskie st\u0101st\u012bjumi cikl\u0101 \"Par br\u012bv\u012bbu\". Dr. hist. Guntis Zem\u012btis st\u0101st\u012bs par zemga\u013cu Upmales zemi un t\u0101s attiec\u012bb\u0101m ar p\u0101r\u0113jo Zemgali 13. gadsimt\u0101, Mg. hist. Dagnis Dedumietis piev\u0113rs\u012bsies Daugavgr\u012bvas zemessargu bataljonu darb\u012bbai Lietuv\u0101 un Zemgal\u0113 1915. gad\u0101 - str\u0113lnieki pirms str\u0113lniekiem, Dr. philol. Gatis Ozoli\u0146\u0161 izkl\u0101st\u012bs 7. Bauskas latvie\u0161u str\u0113lnieku bataljona (pulka) izveido\u0161anos un kauju ce\u013cu, savuk\u0101rt Mg. hist. Raitis \u0100belnieks no Bauskas muzeja iepaz\u012bstin\u0101s ar nacion\u0101lo partiz\u0101nu darb\u012bbu Bauskas apri\u0146\u0137\u012b p\u0113c Otr\u0101 pasaules kara. Sv\u0113tdien, 8. j\u016bnij\u0101, Bauskas pils pagalm\u0101 norisin\u0101sies \u012bpa\u0161a programma, kur\u0101 ar\u012b b\u016bs las\u012bjumu ciklu \"Par sakn\u0113m\".\n\nPla\u0161\u0101k par dal\u012bbniekiem un cita inform\u0101cija pieejama festiv\u0101la m\u0101jaslap\u0101.",
        "source": {
          "uri": "lsm.lv",
          "dataType": "news",
          "title": "Latvian public media"
        },
        "authors": [],
        "image": "https://static.lsm.lv/media/2025/05/large/1/qetv.jpg",
        "eventUri": null,
        "sentiment": null,
        "wgt": 484910363,
        "relevance": 1
      },
      {
        "uri": "8677870408",
        "lang": "slv",
        "isDuplicate": true,
        "date": "2025-05-14",
        "time": "09:18:58",
        "dateTime": "2025-05-14T09:18:58Z",
        "dateTimePub": "2025-05-14T07:03:00Z",
        "dataType": "news",
        "sim": 0,
        "url": "https://www.primorski.eu/trzaska/na-proseku-po-vec-kot-stirih-letih-spet-druzinski-zdravnik-BX1880276",
        "title": "Na Proseku po ve\u010d kot \u0161tirih letih spet dru\u017einski zdravnik",
        "body": "\u0160e pred koncem maja bo v prostorih nad prose\u0161ko lekarno paciente sprejemal dr. Mitja Bresciani\n\nPo ve\u010d kot \u0161tirih letih prizadevanj, zato da bi na Proseku ponovno odprli ambulanto dru\u017einskega zdravnika, in ko je \u017ee kazalo, da bodo morali Prose\u010dani in prebivalci okoli\u0161kih vasi vre\u010di pu\u0161ko v koruzo, je v javnost le pri\u0161la razveseljiva novica: prostori nad va\u0161ko lekarno (Prosek \u0161t. 161) bodo \u0161e pred koncem meseca ponovno sprejemali paciente. Na razpis zdravstvenega podjetja Asugi se je namre\u010d prijavil dr. Mitja Bresciani, ki bo kot dru\u017einski zdravnik na Proseku sprejemal od 28. maja dalje.\n\nOd tega dne (od polno\u010di dalje) ga bodo lahko va\u0161\u010dani in prebivalci okoli\u0161kih vasi izbrali za osebnega zdravnika preko spletne strani Asugija, je zagotovil 50-letni Gori\u010dan, ki pa biva v Trstu \"Za\u010detno bom lahko sprejel do tiso\u010d pacientov, s \u010dasom tudi nekaj ve\u010d,\" je pojasnil. Povedal je, da se je za Prosek odlo\u010dil, ker si je \u017eelel nekam na Kras in med Slovence.\n\n\"Gre za zelo dobro novico. Kon\u010dno se bodo nekatere te\u017eave, s katerimi so se morali ob\u010dani spopadati zaradi pomanjkanja dru\u017einskega zdravnika, re\u0161ile,\" se je novosti veselil predsednik zahodnokra\u0161kega rajonskega sveta Pavel Vidoni (Slovenska skupnost). V rajonskem svetu so si namre\u010d v zadnjih letih veliko prizadevali, da bi tamkaj\u0161njim prebivalcem spet zagotovili pomembno storitev.",
        "source": {
          "uri": "primorski.eu",
          "dataType": "news",
          "title": "www.primorski.eu"
        },
        "authors": [],
        "image": "https://www.primorski.eu/binrepository/680x455/32c40/480d250/none/11104/EXHM/immagine-prosek-201111db05-13088187_1215384_20250513204220.jpg",
        "eventUri": null,
        "sentiment": null,
        "wgt": 484910338,
        "relevance": 1
      },
      {
        "uri": "8677869507",
        "lang": "hrv",
        "isDuplicate": false,
        "date": "2025-05-14",
        "time": "09:18:55",
        "dateTime": "2025-05-14T09:18:55Z",
        "dateTimePub": "2025-05-14T09:18:02Z",
        "dataType": "news",
        "sim": 0.615686297416687,
        "url": "https://www.dan.co.me/zabava/muzika-i-film/marko-bosnjak-se-oglasio-nakon-ispadanja-sa-eurosonga-dao-sam-sve-od-sebe-5297326",
        "title": "Marko Bo\u0161njak se oglasio nakon ispadanja sa Eurosonga: Dao sam sve od sebe",
        "body": "Bo\u0161njak je u sino\u0107njem polufinalu nastupio pretposljednji, a predstavio se pjesmom \"Poison Cake\"\n\nOve godine Hrvatsku na Eurosongu predstavljao je Marko Bo\u0161njak, mladi pjeva\u010d porijeklom iz Bosne i Hercegovine. Nakon ispadanja u prvom polufinalu, Marko se oglasio te zahvalio za podr\u0161ku koju je dobio, te naveo da je dao sve od sebe.\n\nBo\u0161njak je u sino\u0107njem polufinalu nastupio pretposljednji, a predstavio se pjesmom \"Poison Cake\".\n\nHrvatski mediji prenijeli su izjavu pjeva\u010da koji se oglasio nakon ispadanja i zahvalio na podr\u0161ci.\n\n- Iako nismo pro\u0161li u finalne, beskrajno sam sre\u0107an i ponosan \u0161to smo imali priliku predstavljati Hrvatsku na Eurosongu! Hvala mom timu, hvala svima koji me podr\u017eavaju, hvala svakome ko nam je poklonio glas i vjerovao u nas - kazao je.\n\nDodao je kako se nada da su opravdali o\u010dekivanja.\n\n- Zaista smo dali sve od sebe i cijele sebe na evrovizijskoj pozornici. Po\u017eelio bih sre\u0107u svim kandidatima koji ulaze u finale. Gledamo i navijamo - kazao je.\n\nPodsjetimo, u prvom polufinalu prolazak dalje izborilo je 10 zemalja - me\u0111u njima su: Norve\u0161ka, Albanija, \u0160vedska, Island, Holandija, Poljska, San Marino, Estonija, Portugal i Ukrajina.",
        "source": {
          "uri": "dan.co.me",
          "dataType": "news",
          "title": "Dnevne novine Dan"
        },
        "authors": [
          {
            "uri": "dan_portal@dan.co.me",
            "name": "Dan Portal",
            "type": "author",
            "isAgency": false
          }
        ],
        "image": "https://static.dan.co.me/images/slike/new/2025/05/14/2000209.jpg",
        "eventUri": "spa-3838357",
        "sentiment": null,
        "wgt": 484910335,
        "relevance": 1
      },
      {
        "uri": "8677870003",
        "lang": "srp",
        "isDuplicate": false,
        "date": "2025-05-14",
        "time": "09:18:47",
        "dateTime": "2025-05-14T09:18:47Z",
        "dateTimePub": "2025-05-14T09:15:00Z",
        "dataType": "news",
        "sim": 0,
        "url": "https://www.alo.rs/vesti/beograd/1062067/sapic-beograd-usao-u-finale-svetskog-izbora-kao-najbolji-evropski-projekat/vest",
        "title": "\u0160api\u0107: Beograd u\u0161ao u finale svetskog izbora kao najbolji evropski projekat (FOTO)",
        "body": "EVAKUISANE DVE OSNOVNE \u0160KOLE Stra\u0161ne poplave u Merilendu, izdato upozorenje za delove Amerike\n\nGradona\u010delnik \u0160api\u0107 je tom prilikom izrazio veliko zadovoljstvo \u0161to je \"Projekat javno-privatnog partnerstva za poveravanje gradskog putni\u010dkog autobuskog prevoza u Gradu Beogradu\", kao najbolji projekat iz Evrope, u\u0161ao u finale izbora za najbolji svetski projekat koji dodeljuje Ekonomska komisija UN.\n\nNa\u0161 projekat je u finalu od ukupno 61 projekta iz \u010ditavog sveta, koliko ih je u konkurenciji za nagradu za inovativna re\u0161enja i promocije najboljih praksi u oblasti javno-privatnog partnerstva i odr\u017eive infrastrukture.\n\nNa sve\u010danom otvaranju foruma, koji se odr\u017eava u hotelu \"Hilton\" u na\u0161em glavnom gradu, \u0160api\u0107 je naglasio zna\u010daj i veliki uspeh koji je Beograd ovim projektom postigao.\n\n- Veliko mi je zadovoljstvo da kao gradona\u010delnik Beograda ugostim u\u010desnike ovako va\u017enog foruma, koji se bavi va\u017enom temom kao \u0161to je javno-privatno partnerstvo. Pored zadovoljstva i \u010dinjenice da sam prvi me\u0111u jednakima koji vodi na\u0161 grad, posebna mi je \u010dast jer je jedan od kapitalnih projekata i sastavni deo velike reforme beogradskog javnog prevoza, verovatno najve\u0107e otkad postoji, koji je sprovela Gradska uprava na \u010dijem sam \u010delu, projekat u oblasti javno-privatnog partnerstva koji je prepoznala Ekonomska komisija Ujedinjenih nacija za Evropu. Pre nekoliko dana sam saznao da je od 61, a kao jedini evropski projekat koji se na\u0161ao u odabranom dru\u0161tvu, na\u0161 projekat u\u0161ao u finalnu fazu i naju\u017ei krug od pet najva\u017enijih svetskih projekata. Ako se ne varam, projekat se na\u0161ao \"u dru\u0161tvu\" Sjedinjenih Ameri\u010dkih Dr\u017eava, Senegala, Brazila i Uzbekistana, \u0161to nas dovodi u situaciju da imamo najbolji evropski projekat. To je velika stvar za Grad Beograd, ovu Gradsku upravu i za dr\u017eavu Srbiju. Nekada mi se \u010dini, kao i u drugim oblastima, nauci, kulturi, sportu, da prve velike i va\u017ene potvrde dobijemo spolja, iz inostranstva, pa tek onda u na\u0161oj zemlji. Izuzetno sam ponosan na sve ljude koji su u\u010destvovali u tom projektu i najve\u0107oj reformi javnog prevoza u Beogradu, i na to \u0161to kao doma\u0107ini va\u017enog foruma, koji se organizuje uz pomo\u0107 Vlade Srbije, i mi participiramo kao finalisti - rekao je \u0160api\u0107.\n\nSvim u\u010desnicima po\u017eeleo je uspe\u0161an rad, izraziv\u0161i uverenje da \u0107e kao \"proizvod\" tog rada iza\u0107i nove ideje i nova znanja.\n\n- Nadam se da \u0107emo nakon ova dva dana foruma svi biti mudriji i da \u0107emo unaprediti oblast javno-privatnog partnerstva. Beograd je uvek dobar doma\u0107in i onaj ko u njega do\u0111e uglavnom mu se kasnije i vra\u0107a, tako da se nadam da \u0107e tako biti i sa onima koji su prvi put ovde. Mi \u0107emo uraditi sve \u0161to je u na\u0161oj mo\u0107i da vam boravak bude prijatan i protekne u najboljem mogu\u0107em redu - istakao je \u0160api\u0107.\n\n\"Projektom javno-privatnog partnerstva za poveravanje gradskog putni\u010dkog autobuskog prevoza\" Beograd i Srbija se pozicioniraju kao lideri u regionu u primeni inovativnih i odr\u017eivih re\u0161enja u oblasti javnog prevoza. Projekat je konkretna mera koja daje rezultate u kratkom roku. Obuhvata 734 nova autobusa koji zadovoljavaju savremene ekolo\u0161ke standarde.\n\nCilj projekta je zamena svih autobusa starijih od 5 godina, a usluga prevoza novim autobusima bi\u0107e kompletirana u roku od 12 meseci od zaklju\u010divanja ugovora. Nakon 5 godina, privatni partner je obavezan da ponovo zameni celu \"flotu\" novim autobusima, od kojih 20 odsto moraju biti elektri\u010dni i hibridni autobusi.\n\nGrad je nakon implementacije projekta doneo odluku o besplatnom gradskom prevozu za sve korisnike, \u010dime se podsti\u010de ve\u0107e kori\u0161\u0107enje javnog prevoza, smanjuje upotreba privatnih vozila, rastere\u0107uju saobra\u0107ajnice i parking prostori koji se ne mogu pro\u0161iriti.",
        "source": {
          "uri": "alo.rs",
          "dataType": "news",
          "title": "alo"
        },
        "authors": [
          {
            "uri": "mirjana_bojkovic@alo.rs",
            "name": "Mirjana Bojkovi\u0107",
            "type": "author",
            "isAgency": false
          }
        ],
        "image": "https://www.alo.rs/data/images/2025-05-14/1041640_whatsapp-image-2025-05-14-at-110457-1_f.jpeg?timestamp=1747214143",
        "eventUri": null,
        "sentiment": null,
        "wgt": 484910327,
        "relevance": 1
      }
    ],
    "totalResults": 18394,
    "page": 1,
    "count": 5,
    "pages": 3679
  }
}