{
  "articles": {
    "results": [
      {
        "uri": "2025-05-716272917",
        "lang": "eng",
        "isDuplicate": false,
        "date": "2025-05-11",
        "time": "12:33:32",
        "dateTime": "2025-05-11T12:33:32Z",
        "dateTimePub": "2025-05-11T12:30:00Z",
        "dataType": "news",
        "sim": 0,
        "url": "https://seekingalpha.com/article/4784392-cet-excellent-record-17-percent-discount-but-yields-less-than-6-percent",
        "title": "CET: Excellent Record, 17% Discount, But Yields Less Than 6% (NYSE:CET)",
        "body": "Looking for more investing ideas like this one? Get them exclusively at High Income DIY Portfolios. Learn More \"\n\nIntroduction:\n\nLast week, we covered Adams Diversified Equity Fund (ADX), which has had a very long history since 1929. This week, we're going to cover another closed-end fund, Central Securities Corporation (NYSE:CET), with an equally long\n\nHigh Income DIY Portfolios: The primary goal of \"High Income DIY Portfolios\" Marketplace service is high income with low risk and preservation of capital. It provides DIY investors with vital information and portfolio/asset allocation strategies to help create stable, long-term passive income with sustainable yields. The portfolios are designed for Income-Investors (including retirees or near-retirees). We provide seven portfolios: 3 buy-and-hold, 3 Rotational portfolios, and 3-Bucket NPP Model Portfolio. This includes two High-Income portfolios, two DGI portfolios, and a conservative NPP strategy portfolio with low drawdowns and high growth. For more details or a two-week free trial, please click here.\n\nFinancially Free Investor is a financial writer with 25 years investment experience. He focuses on investing in dividend-growing stocks with a long-term horizon. He applies a unique 3-basket investment approach that aims for 30% lower drawdowns, 6% current income, and market-beating growth on a long-term basis and he focuses on dividend-growing stocks with a long-term horizon. He runs the investing group\n\nHigh Income DIY Portfolios which provides vital strategies for portfolio management and asset allocation to help create stable, long-term passive income with sustainable yields. The service includes a total of 10 model portfolios with a range of income targets for varying levels of risk, buy and sell alerts, and live chat. Learn more.\n\nAnalyst's Disclosure: I/we have a beneficial long position in the shares of ABT, ABBV, CI, JNJ, PFE, NVS, NVO, AZN, UNH, CL, CLX, UL, NSRGY, PG, TSN, ADM, BTI, MO, PM, KO, PEP, EXC, D, DEA, DEO, ENB, MCD, BAC, PRU, UPS, WMT, WBA, CVS, LOW, AAPL, IBM, CSCO, MSFT, INTC, T, VZ, CVX, XOM, VLO, ABB, ITW, MMM, LMT, LYB, RIO, O, NNN, WPC, ARCC, ARDC, AWF, CII, CHI, DNP, PEO, USA, UTF, UTG, RFI, RNP, TLT either through stock ownership, options, or other derivatives. I wrote this article myself, and it expresses my own opinions. I am not receiving compensation for it (other than from Seeking Alpha). I have no business relationship with any company whose stock is mentioned in this article.\n\nDisclaimer: The information presented in this article is for informational purposes only and in no way should be construed as financial advice or recommendation to buy or sell any stock. The author is not a financial advisor. Please always do further research and do your own due diligence before making any investments. Every effort has been made to present the data/information accurately; however, the author does not claim 100% accuracy. The stock portfolios presented here are model portfolios for demonstration purposes. For the complete list of our LONG positions, please see our profile on Seeking Alpha.\n\nSeeking Alpha's Disclosure: Past performance is no guarantee of future results. No recommendation or advice is being given as to whether any investment is suitable for a particular investor. Any views or opinions expressed above may not reflect those of Seeking Alpha as a whole. Seeking Alpha is not a licensed securities dealer, broker or US investment adviser or investment bank. Our analysts are third party authors that include both professional investors and individual investors who may not be licensed or certified by any institute or regulatory body.",
        "source": {
          "uri": "seekingalpha.com",
          "dataType": "news",
          "title": "Seeking Alpha"
        },
        "authors": [
          {
            "uri": "financially_free_investor@seekingalpha.com",
            "name": "Financially Free Investor",
            "type": "author",
            "isAgency": false
          }
        ],
        "image": "https://static.seekingalpha.com/cdn/s3/uploads/getty_images/1469387313/image_1469387313.jpg?io=getty-c-w1536",
        "eventUri": null,
        "sentiment": 0.1450980392156862,
        "wgt": 484662812,
        "relevance": 1
      },
      {
        "uri": "8673453410",
        "lang": "ita",
        "isDuplicate": false,
        "date": "2025-05-11",
        "time": "11:07:53",
        "dateTime": "2025-05-11T11:07:53Z",
        "dateTimePub": "2025-05-11T11:06:48Z",
        "dataType": "news",
        "sim": 0,
        "url": "https://www.ilsussidiario.net/news/sondaggi-portogallo-ad-va-al-34-ps-26-chega-15-caos-su-espulsione-migranti-a-una-settimana-dal-voto/2832868/",
        "title": "Sondaggi Portogallo: AD va al 34%, PS 26%, Chega 15%/ Caos su espulsione migranti a una settimana dal voto",
        "body": "A una settimana dalle elezioni del 18 maggio, i sondaggi confermano l'Alleanza Democratica (AD-EPP) in testa con il 34%, seguita dal Partito Socialista (PS-S&D) al 26% e dal partito di destra Chega (CH-PfE) al 15% - in calo di un punto rispetto alla settimana precedente - con il contesto politico che \u00e8 stato travolto dall'annuncio shock del governo guidato da Lu\u00eds Montenegro, riguardo l'espulsione di 18.000 migranti irregolari (prevalentemente da Asia meridionale) che ha scatenato polemiche e accuse di strumentalizzazione elettorale.\n\nSondaggi politici 2025/ Meloni (e crisi Pd) traina Centrodestra al 50%: campo largo flop spera nelle Comunali\n\nL'AD - coalizione di centrodestra - cerca di rafforzare il consenso puntando su sicurezza e controllo delle frontiere - mentre il PS accusa l'esecutivo di demagogia, sostenendo che la misura serva a distrarre dai fallimenti economici - intanto - Chega - formazione nazionalista - cerca di capitalizzare il malcontento con toni anti-immigrazione nonostante il leggero calo nei consensi nei sondaggi.\n\nSondaggi UK: Farage al 33% travolge Labour e Tory/ Reform inarrestabile e frattura dei partiti tradizionali\n\nIl tema migratorio domina il dibattito in Portogallo con il premier Montenegro che ha giustificato le espulsioni come una necessit\u00e0 amministrativa, citando il collasso del sistema di regolarizzazioni dopo lo scioglimento del Sef nel 2023 ma il presidente Marcelo Rebelo de Sousa ha avvertito che senza migranti l'economia nazionale rischia il tracollo; intanto, sinistra e ambientalisti (L-G/EFA al 5%) denunciano la carenza di centri di accoglienza e i ritardi nell'uso dei fondi Ue, il Partito Comunista (CDU-LEFT) con il Blocco di Sinistra (BE-LEFT) insieme al 6%, attaccano la deriva securitaria - mentre i Liberali (IL-RE, 6%) spingono per riforme pro-mercato.\n\nSondaggi politici 2025, la media/ Nuovo balzo FdI, crollo M5s all'11%, ossigeno Pd: Centrodestra vola al 49%\n\nI sondaggi dipingono un Parlamento fortemente frammentato: l'AD - nonostante il vantaggio - potrebbe non raggiungere la maggioranza assoluta (116 seggi su 230) - costringendo Montenegro a cercare accordi con Chega, finora escluso da patti formali - ma l'ipotesi divide l'elettorato moderato; il PS - in ripresa dopo lo scandalo che nel 2024 ha travolto l'ex premier Ant\u00f3nio Costa - punta a riconquistare il centro con proposte sociali; ma fatica a contrastare l'ascesa di formazioni minori come l'ecologista Livre (5%) e il PAN (2%, +1) focalizzati su ambiente e diritti animali.\n\nIntanto, la retorica anti-establishment di Chega - guidata da Andr\u00e9 Ventura - risuona in aree rurali e periferiche, dove la crisi abitativa e il carovita rafforzano proteste e disillusione e con l'affluenza incerta e il 15% degli elettori ancora indecisi, il voto potrebbe riservare sorprese; l'ultima settimana di campagna vedr\u00e0 scontri su immigrazione, welfare e riforme fiscali in Portogallo dove gli stranieri sono quadruplicati dal 2017 - raggiungendo il 15% della popolazione - l'esito quindi non solo definir\u00e0 gli equilibri interni ma tester\u00e0 la resilienza del modello portoghese, un equilibrio fragile tra inclusivit\u00e0 e tensioni populiste.",
        "source": {
          "uri": "ilsussidiario.net",
          "dataType": "news",
          "title": "IlSussidiario.net"
        },
        "authors": [],
        "image": "https://www.ilsussidiario.net/wp-content/uploads/2024/03/10/elezioni_portogallo_montenegro_ad_ansa_2024.jpg",
        "eventUri": null,
        "sentiment": null,
        "wgt": 484657673,
        "relevance": 1
      },
      {
        "uri": "2025-05-716173284",
        "lang": "eng",
        "isDuplicate": false,
        "date": "2025-05-11",
        "time": "09:41:08",
        "dateTime": "2025-05-11T09:41:08Z",
        "dateTimePub": "2025-05-10T22:00:00Z",
        "dataType": "news",
        "sim": 0,
        "url": "https://www.mohavedailynews.com/online_features/press_releases/lecomely-launches-airedge-a3-multi-styler-uniquify-your-style-with-all-in-one-hair-mastery/article_ba5a3f2d-cedc-554c-b651-02a1b2080daf.html",
        "title": "Lecomely Launches AirEdge A3 Multi-styler: Uniquify Your Style with All-in-One Hair Mastery",
        "body": "SHENZHEN, China, May 10, 2025 /PRNewswire/ -- Lecomely, a pioneering beauty brand, revolutionizes personal care with its science-driven innovations, proudly introducing the Lecomely AirEdge A3 Multi-styler to the U.S. market. The Lecomely AirEdge A3 Multi-styler delivers precision-engineered styling with Smart Temperature Regulation, rapid heat-up technology, and 360\u00b0 airflow versatility -- preserving hair health while achieving salon-perfect waves and curls effortlessly.\n\nkAmkDEC@?8mkDA2? 4=2DDlQI?\\A6CD@?QmqC2?5 $E@CJk^DA2?mi (96C6 $4:6?46 t>A@H6CD w2:CDEJ=:?8 uC665@>k^DEC@?8mk^Am\n\nkAmu@F?565 @? 2 >:DD:@? E@ C6>65:2E6 E96 D9@CE4@>:?8D @7 EC25:E:@?2= DEJ=:?8 E@@=D[ {64@>6=J 3C:586D E96 82A 36EH66? 9:89\\A6C7@C>2?46 DEJ=:?8 2?5 92:C AC6D6CG2E:@?] qJ =6G6C28:?8 4FEE:?8\\6586 E96C>2= 6?8:?66C:?8 2?5 6C8@?@>:4 56D:8?[ E96 kDA2? :5lQDA2?w89=E2ef_Qm{64@>6=J p:Ct586 pb |F=E:\\DEJ=6Ck^DA2?m 6>3@5:6D {64@>6=JVD 6E9@Di kDEC@?8mQ&?:BF:7J *@FC $EJ=6Q H:E9@FE 4@>AC@>:D6k^DEC@?8m]k^Am\n\nkAmkDEC@?8m(9J kDA2? :5lQDA2?w89=Ee3cbQm{64@>6=J p:Ct586 pb |F=E:\\DEJ=6Ck^DA2?m #6567:?6D w2:C r2C6k^DEC@?8mk^Am\n\nkAmkDEC@?8md\\:?\\' '6CD2E:=:EJi rFC=[ $EC2:89E6?[ sCJ U2>Aj $>@@E9 7@C p== w2:C %JA6Dk^DEC@?8mk^Am\n\nkAm(96E96C J@F 92G6 7:?6[ 4FC=J[ E9:4<[ @C 496>:42==J EC62E65 92:C[ E96 pb 252AED D62>=6DD=J[>2:?E2:? DEJ=:?8 7@C FA E@ 'g 9@FCDik^Am\n\nkAmkDEC@?8mb x?E6C492?8623=6 pEE249>6?EDk^DEC@?8mi p49:6G6 A@=:D965 3=@H@FED[ G@=F>:?@FD 4FC=D[ @C 567:?65 H2G6D H:E9 @?6 E@@=]k^Am\n\nkAmkDEC@?8m$>2CE %6>A6C2EFC6 #68F=2E:@?k^DEC@?8mi pFE@\\25;FDED 962E W'__ E:>6D^DX 32D65 @? 92:C E6IEFC6 E@ >:?:>:K6 92:C 52>286]k^Am\n\nkAmkDEC@?8m#2A:5 w62E\\FA %649?@=@8Jk^DEC@?8mk^Am\n\nkAmkDEC@?8m''_[___ #!| w:89\\$A665 |@E@Ck^DEC@?8mi p49:6G6 9:89 4C@H? 92:CDEJ=6 :? d >:?FE6D -- :562= 7@C CFD965 >@C?:?8D W7@C =@?8 92:C 7F== 9625 DEJ=:?8 :? yFDE 'f |:?FE6DX]k^Am\n\nkAmkDEC@?8mtC8@?@>:4 s6D:8?k^DEC@?8mi {:89EH6:89E W']_h =3DX H:E9 2 be_\u00b0 DH:G6= 4@C5 7@C E2?8=6\\7C66 FD6]k^Am\n\nkAmkDEC@?8mw2:C w62=E9 u:CDEk^DEC@?8mk^Am\n\nkAmkDEC@?8ms2>286\\uC66 $9:?6 H:E9 $>2CE w62E U2>Aj }682E:G6 x@?Dk^DEC@?8mi r6C2>:4\\\\x?7FD65 A=2E6D E92E 6G6?=J 5:DEC:3FE6 962E[ H9:=6 C6=62D6 ?682E:G6 :@?D E@ C65F46 7C:KK 2?5 6?92?46 D9:?6 @7 J@FC 92:C]k^Am\n\nkAmkDEC@?8mr@@= %@F49 %649?@=@8Jk^DEC@?8mi $276 7@C E@F49:?8 5FC:?8 >:5\\DEJ=:?8]k^Am\n\nkAmkDEC@?8m%C2G6=\\#625J U2>Aj &D6C\\r6?EC:4 s6D:8?k^DEC@?8mk^Am\n\nkAm%96 pbVDU?3DAjkDEC@?8m4@>A24E 56D:8?k^DEC@?8mU?3DAj2?5 962E\\C6D:DE2?E EC2G6= 328 C6567:?6D 8=@36EC@EE6C 362FEJ DE2?52C5DWrFDE@>:K65 328 42? 36 7@F?5 @? 2?@E96C =:?<[ H:E9 4@FA@?D 2G2:=23=6 7C@> k2 9C67lQ9EEAi^^{64@>6=J=:76]4@>Qm{64@>6=J=:76]4@>k^2mX] uC@> 492@E:4 3FD:?6DD EC:A >@C?:?8D E@ 56DE:?2E:@? H655:?8D[ D2=@?\\A6C764E 92:CDEJ=6D DE2J 677@CE=6DD=J 2446DD:3=6]k^Am\n\nkAmkDEC@?8m#62= &D6C $46?2C:@Dk^DEC@?8mk^Am\n\nkAmkDEC@?8m%:>6\\rCF?4965 !C@76DD:@?2=Dk^DEC@?8mi %C2?D7@C> 52>A 92:C E@ 2 A@=:D965 3=@H@FE 367@C6 J@FC 4@7766 3C6H65]k^Am\n\nkAmkDEC@?8mrFC=J w2:C r92>A:@?Dk^DEC@?8mi s67:?6 4FC=D H:E9@FE D24C:7:4:?8 G@=F>6 @C >@:DEFC6]k^Am\n\nkAmkDEC@?8mv:7E $66<6CDk^DEC@?8mi %96 A6C764E |@E96CVD s2J @C 9@=:52J 8:7E 7@C =@G65 @?6D H9@ G2=F6 677:4:6?4J 2?5 D6=7\\42C6]k^Am\n\nkAmkDEC@?8mp |6DD286 7C@> {64@>6=J qC2?5k^DEC@?8mk^Am\n\nkAmQ%C25:E:@?2= E@@=D 7@C46 FD6CD E@ D24C:7:46 DA665 7@C 92:C 962=E9] Q D2JD w2?< {F@ Q %96 pb 6C25:42E6D E92E DA665\\92:C 962=E9 EC256\\@77[(6VG6 6?8:?66C65 6G6CJ 4@>A@?6?E -- 7C@> E96 >@E@C E@ E96 A=2E6D -- E@ 56=:G6C D2=@?kDEC@?8m\\=6G6= C6DF=ED H:E9 K6C@ 8F:=Ek^DEC@?8m]Qk^Am\n\nkAmkDEC@?8mpG2:=23:=:EJ U2>Aj $FDE2:?23:=:EJk^DEC@?8mk^Am\n\nkAm%96 kDA2? :5lQDA2?w89=Ed5f6Qm{64@>6=J p:Ct586 pb |F=E:\\DEJ=6Ck^DA2?m W|$#!i kDA2? 4=2DDlQI?\\>@?6JQmS'hh]hhk^DA2?mX 563FED @?U?3DAj,'_kDFAmE9k^DFAm @7 |2J. 6I4=FD:G6=J 2EU?3DAj ,p>2K@? 2?5 k2 9C67lQ9EEAi^^{64@>6=J=:76]4@>Qm{64@>6=J=:76]4@>k^2m.[ 2?5 2=@?8D:56 9:89\\6?5 362FEJ C6E2:=6CD] rC27E65 :? C64J4=23=6 >2E6C:2=D[ E9:D D=66< |F=E:\\$EJ=6C 6>3@5:6D {64@>6=JVD 4@>>:E>6?E :? DFDE2:?23=6 2?5 64@\\4@?D4:@FD :??@G2E:@?]k^Am\n\nkAmkDEC@?8mp3@FE {64@>6=Jk^DEC@?8mk^Am\n\nkAm{64@>6=J :D 2 8=@32= A:@?66C :? D>2CE 362FEJ E649?@=@8J] qJ >6C8:?8 =23@C2E@CJ\\AC@G6? E96C>2= 6?8:?66C:?8 H:E9 4@?DF>6C :?D:89ED[ H6 6>A@H6C :?5:G:5F2=D E@ 6?;@J 4FEE:?8\\6586 92:CDEJ=6 A6C7@C>2?46 H:E9 92:C 962=E9 AC6D6CG2E:@?]k^Am\n\nkAmq@C? 7C@> E96 F=E:>2E6 G:D:@? E@ EC2?D46?5 EC25:E:@?2= 3@F?52C:6D 2D 2? 2G2?E\\82C56 A6CD@?2= 42C6 :??@G2E@C[ A@H6C65 3J C6=6?E=6DD E649?@=@8:42= 3C62<E9C@F89D[ H6 6G@=G65 7C@> 2? :?5FDECJ 492==6?86C :?E@ E96 8=@32= G2?8F2C5 @7 D4:6?46\\5C:G6? 42C6 D@=FE:@?D]k^Am\n\nkAmkDEC@?8m|65:2 r@?E24Eik^DEC@?8mk^Am\n\nkAmw2?<]=F@k^Am\n\nkAms:C64E@C @7 {64@>6=J qC2?5k^Am\n\nkAmt>2:=i k2 9C67lQ>2:=E@iw2?<]=F@o=64@>6=J=:76]4@>Q C6=lQ?@7@==@HQ E2C86ElQ03=2?<Qmw2?<]=F@o=64@>6=J=:76]4@>k^2mk^Am\n\nkAm(63D:E6i k2 9C67lQ9EEAi^^HHH]=64@>6=J]4@>^Q C6=lQ?@7@==@HQ E2C86ElQ03=2?<QmHHH]=64@>6=J=:76]4@>k^2mk^Am\n\nkAmp>2K@?i k2 9C67lQ9EEADi^^HHH]2>2K@?]4@>^5A^q_uag(ebvsQ C6=lQ?@7@==@HQ E2C86ElQ03=2?<Qm9EEADi^^HHH]2>2K@?]4@>^5A^q_uag(ebvsk^2m k^Am\n\nk5:G 4=2DDlQ!#}0x>365565pDD6E#676C6?46Q :5lQs:GpDD6E!=246w@=56C_Qmk^5:Gm\n\nkA :5lQ!&#{Qmk:>8 2=ElQr:D:@?Q 96:89ElQ'aQ DC4lQ9EEADi^^4a'a]?6E^4^:>8^72G:4@?]A?8nD?lr}fbhacU2>AjD5la_ad\\_d\\'_Q E:E=6lQr:D:@?Q H:5E9lQ'aQ ^m ':6H @C:8:?2= 4@?E6?E E@ 5@H?=@25 >F=E:>65:2ik2 9C67lQ9EEADi^^HHH]AC?6HDH:C6]4@>^?6HD\\C6=62D6D^=64@>6=J\\=2F?496D\\2:C6586\\2b\\>F=E:\\DEJ=6C\\F?:BF:7J\\J@FC\\DEJ=6\\H:E9\\2==\\:?\\@?6\\92:C\\>2DE6CJ\\b_accf_fd]9E>=Q :5lQ!#}&#{Q C6=lQ?@7@==@HQ E2C86ElQ03=2?<Qm9EEADi^^HHH]AC?6HDH:C6]4@>^?6HD\\C6=62D6D^=64@>6=J\\=2F?496D\\2:C6586\\2b\\>F=E:\\DEJ=6C\\F?:BF:7J\\J@FC\\DEJ=6\\H:E9\\2==\\:?\\@?6\\92:C\\>2DE6CJ\\b_accf_fd]9E>=k^2mk^Am\n\nkAm$~&#rt {64@>6=Jk^Am\n\nkAmk:>8 DC4lQ9EEADi^^CE]AC?6HDH:C6]4@>^CE]8:7n}6HDxE6>x5lr}fbhacU2>Aj%C2?D>:DD:@?0x5la_ad_d'_'g__!#0}t($0&$!#00000r}fbhacU2>Ajs2E6x5la_ad_d'_Q DEJ=6lQ3@C56Ci_AIj H:5E9i'AIj 96:89Ei'AIjQ ^mk^Am",
        "source": {
          "uri": "mohavedailynews.com",
          "dataType": "news",
          "title": "Mohave Valley Daily News"
        },
        "authors": [],
        "image": "https://bloximages.chicago2.vip.townnews.com/mohavedailynews.com/content/tncms/assets/v3/editorial/3/57/35775321-c06f-59ff-96c1-d34c46de8e52/68206ecf2554d.image.jpg?crop=1272%2C668%2C0%2C22&resize=438%2C230&order=crop%2Cresize",
        "eventUri": null,
        "sentiment": 0.1294117647058823,
        "wgt": 484652468,
        "relevance": 1
      },
      {
        "uri": "2025-05-716114204",
        "lang": "eng",
        "isDuplicate": false,
        "date": "2025-05-11",
        "time": "08:01:36",
        "dateTime": "2025-05-11T08:01:36Z",
        "dateTimePub": "2025-05-11T07:30:00Z",
        "dataType": "news",
        "sim": 0.6745098233222961,
        "url": "https://www.mohavedailynews.com/news/light-agenda-for-colorado-river-union-high-school-district-board-on-monday/article_459ab67d-3956-46ef-ad8c-12ef8fb2a82c.html",
        "title": "Light agenda for Colorado River Union High School District board on Monday",
        "body": "BULLHEAD CITY -- The Colorado River Union High School District governing board will meet Monday to consider a light agenda primarily composed of housekeeping items.\n\nThe final budget revision of the school year will be considered, with minor changes mostly related to updating the 100th day daily membership numbers. The revision will set the maintenance and operations budget to $16,083,055 and the unrestricted capital fund to $2,270,201.\n\nkAmx? ?6H 3FD:?6DD[ E96 8@G6C?:?8 3@2C5 H:== 4@?D:56C C6?6H:?8 AC6A2:5 =682= D6CG:46D E9C@F89 E96 pC:K@?2 #:D< #6E6?E:@? %CFDE]k^Am\n\nkAm%96 %CFDE AC@G:56D AC@A6CEJ 2?5 =:23:=:EJ :?DFC2?46 7@C E96 D49@@= 5:DEC:4E[ H9:=6 E96 pC:K@?2 $49@@= p==:2?46 7@C (@C<6CD' r@>A6?D2E:@?[ x?4] AC@G:56D E96 5:DEC:4EVD H@C<6CVD 4@>A6?D2E:@? 4@G6C286]k^Am\n\nkAm{2DE J62C[ E96 8@G6C?:?8 3@2C5 925 C6>@G65 AC6A2:5 =682= D6CG:46D 7C@> E96:C %CFDE D6CG:46D C6?6H2= :? @C56C E@ AFCDF6 >@C6 7=6I:3=6 =682= @AE:@?D :? =:89E @7 D6G6C2= F?:BF6 :DDF6D 724:?8 E96 D49@@= 5:DEC:4E 2E E96 E:>6]k^Am\n\nkAmx7 E96 D49@@= 5:DEC:4E @?46 282:? 564:56D E@ 6I4=F56 AC6A2:5 =682= D6CG:46D :? E96:C %CFDE C6?6H2=[ E96 4@DE H:== 36 Scbb['fd] x?4=F5:?8 E96 AC6A2:5 =682= D6CG:46D H:== 255 Sbf[___ E@ E96 C6?6H2= E@E2=]k^Am\n\nkAm$6G6C2= A@=:4:6D 2=D@ 2C6 @? E96 286?52[ :?4=F5:?8 E96 2AAC@G2= @7 2 C6G:D:@? E@ E96 3@2C5VD @A6?:?8 >66E:?8 =2H A@=:4J[ 2AAC@G2= @7 2 C6G:D:@? E@ E96 5:DEC:4EVD >2DE6CVD C6:>3FCD6>6?E A@=:4J 2?5 A@DD:3=6 24E:@? C682C5:?8 2 4@?7=:4E @7 :?E6C6DE A@=:4J]k^Am\n\nkAm%96 D49@@= 3@2C5 >66E:?8 H:== 36 96=5 e A]>] |@?52J[ |2J 'a[ :? E96 p?56CD@? pFE@ vC@FA u:6=59@FD6] {:G6DEC62>:?8 H:== 36 2G2:=23=6 2E k2 9C67lQ9EEAi^^J@FEF36]4@>^H2E49nGltFde\"!8GIC_]QmJ@FEF36]4@>^H2E49nGltFde\"!8GIC_]k^2mk^Am",
        "source": {
          "uri": "mohavedailynews.com",
          "dataType": "news",
          "title": "Mohave Valley Daily News"
        },
        "authors": [],
        "image": "https://bloximages.chicago2.vip.townnews.com/mohavedailynews.com/content/tncms/custom/image/b954e330-b3ae-11ed-8535-cfe1aff8bb88.png?resize=600%2C315",
        "eventUri": "eng-10596770",
        "sentiment": 0.003921568627450966,
        "wgt": 484646496,
        "relevance": 1
      },
      {
        "uri": "8673162685",
        "lang": "eng",
        "isDuplicate": false,
        "date": "2025-05-11",
        "time": "06:00:04",
        "dateTime": "2025-05-11T06:00:04Z",
        "dateTimePub": "2025-05-11T05:00:00Z",
        "dataType": "news",
        "sim": 0.615686297416687,
        "url": "https://thesouthern.com/news/advocates-applaud-illinois-move-to-protect-autism-data/article_1bd04ef8-fae4-5f89-856a-a46cb96165b8.html",
        "title": "Advocates applaud Illinois' move to protect autism data",
        "body": "SHAWNEETOW -- Families and advocates in Southern Illinois are praising action taken by the state's governor that aims to protect the privacy of people who have autism.\n\nWednesday, Illinois Gov. JB Pritzker signed an executive order aiming to shield the state's residents from unauthorized data relating to autism being collected or shared.\n\nkAm%96 8@G6C?@C D:8?65 E96 @C56C 2D &]$] w62=E9 2?5 wF>2? $6CG:46D $64C6E2CJ #@36CE u] z6??65J yC] 92D 2??@F?465 A=2?D E@ 4C62E6 2 52E232D6 E92E EC24<D A6@A=6 5:28?@D65 H:E9 2FE:D>] z6??65J 92D 4=2:>65 E96 C68:DECJ H:== 36 \"G@=F?E2CJ\" 7@C A2CE:4:A2?ED]k^Am kAmz6??65J'D AC@A@D2= 92D 366? >6E H:E9 4@?46C? 7C@> >2?J 72>:=:6D 27764E65 3J 2FE:D> 2?5 7C@> 25G@42E6D] %92E :?4=F56D |682? #282?[ 6I64FE:G6 5:C64E@C @7 $@FE96C? x==:?@:D #6D@FC46 2?5 p5G@424J r6?E6C]k^AmkAm(96? D96 =62C?65 @7 E96 AC@A@D65 52E232D6[ #282? D2:5 D96 H2D[ \"E6CC:7:65[ 9@?6DE=J]\"k^AmkAm\"x =:E6C2==J E9@F89E -- 92G6 E9@F89E 23@FE :E 7@C D6G6C2= H66<D -- 23@FE :D E96C6 2?J H2J E92E x 42? 86E >J D@?'D >65:42= C64@C5D C6524E65 E@ D9@H E92E 96 5@6D ?@E 92G6 E9:D 5:28?@D:Dn\" D96 D2:5]k^AmkAm$96 D2:5 E96 >@G6 4@F=5 E9C62E6? E96 D276EJ @7 96C 49:=5 2?5 E96 4=:6?ED D96 D6CG6D] $96 D2:5 D96 3C62E965 2 D:89 @7 C6=:67 H96? D96 =62C?65 @7 !C:EK<6C'D 6I64FE:G6 @C56C]k^AmkAm\"%92E 3C:?8D E96> D@>6 D@CE @7 A6246 @7 >:?5 E92E[ J@F <?@H[ D@>63@5J :? 9:896C 2FE9@C:EJ x 8F6DD x D9@F=5 D2J[ 2E =62DE :D ECJ:?8 E@ =@@< @FE 7@C @FC <:5D[ @FC 72>:=J >6>36CD[ @FC DA@FD6D[\" #282? D2:5]k^AmkAm%96 $@FE96C? x==:?@:D pFE:D> $@4:6EJ 28C66D] x? 2 DE2E6>6?E[ E96 @C82?:K2E:@? D2:5 @7 !C:EK<6C'D 6I64FE:G6 @C56Ci \"%9:D :D 2 H:? 7@C AC:G24J[ :?4=FD:@? 2?5 AC@8C6DD] (6'C6 8C2E67F= E96 8@G6C?@C :D =:DE6?:?8 E@ E96 2FE:D> 4@>>F?:EJ 2?5 E2<:?8 4@?4C6E6 24E:@?]\"k^AmkAm#282? 9@A6D ?6:893@C:?8 DE2E6D H:== E2<6 D:>:=2C 24E:@? E@ AC@E64E E96:C C6D:56?ED' AC:G24J]k^AmkAm\"x 5@ 9@A6 E92E...@E96C DE2E6D H:== 7@==@H DF:E :? E9:D[ 3642FD6[ J@F <?@H[ :7 H6 H2?E E@ 5@ 2FE:D> C6D62C49[ E92E'D @<2J] (6 42? 5@ E92E H:E9@FE E96 A6CD@?2= 962=E9 :?7@C>2E:@? @7 :?5:G:5F2=D[\" #282? D2:5]k^AmkAm(96? :E 4@>6D E@ E92E C6D62C49[ #282? H2?ED A6@A=6 H:E9 2FE:D> :?G@=G65 :? E96 A=2??:?8]k^AmkAm\"(6 92G6 E@ C62==J EC625 =:89E=J[ 3642FD6 H96? H6 E2=< 23@FE :E :? E96 HC@?8 H2J[ H6 6?5 FA A2E9@=@8:K:?8 D@>6E9:?8 E92E :D ?@E 2 5:D62D6] xE'D ?@E 2 5:D62D6] xE'D ?@E 2 D:4<?6DD[\" #282? D2:5]k^AmkAmx==:?@:D :D E96 7:CDE DE2E6 E@ 7@C>2==J C6DEC:4E E96 >2DD 4@==64E:@? @C D92C:?8 @7 2FE:D>\\C6=2E65 52E2[ F?=6DD =682==J @C >65:42==J ?646DD2CJ]k^Am",
        "source": {
          "uri": "thesouthern.com",
          "dataType": "news",
          "title": "The Southern"
        },
        "authors": [],
        "image": "https://bloximages.chicago2.vip.townnews.com/thesouthern.com/content/tncms/assets/v3/editorial/1/bd/1bd04ef8-fae4-5f89-856a-a46cb96165b8/681fdad85633b.preview.jpg?crop=1662%2C873%2C0%2C187&resize=438%2C230&order=crop%2Cresize",
        "eventUri": "eng-10596770",
        "sentiment": 0.1058823529411765,
        "wgt": 484639204,
        "relevance": 1
      }
    ],
    "totalResults": 1294,
    "page": 1,
    "count": 5,
    "pages": 259
  }
}