{
  "articles": {
    "results": [
      {
        "uri": "8672474987",
        "lang": "eng",
        "isDuplicate": false,
        "date": "2025-05-10",
        "time": "13:13:56",
        "dateTime": "2025-05-10T13:13:56Z",
        "dateTimePub": "2025-05-10T13:00:00Z",
        "dataType": "news",
        "sim": 0,
        "url": "https://seekingalpha.com/article/4783717-janes-march-2025-retirement-income-update-tariff-turmoil-creates-a-buying-opportunity",
        "title": "Jane's March 2025 Retirement Income Update: Tariff Turmoil Creates A Buying Opportunity",
        "body": "Analyst's Disclosure: I/we have a beneficial long position in the shares of ADM, AMT, AVGO, AVNT, CCI, ETN,HON, LUMN, LYB, MAIN, MMM, TROW, VZ either through stock ownership, options, or other derivatives. I wrote this article myself, and it expresses my own opinions. I am not receiving compensation for it (other than from Seeking Alpha). I have no business relationship with any company whose stock is mentioned in this article.\n\nThis article reflects my own personal views, and I am not giving any specific or general advice. All advice that is given is done so without prejudice, and it is highly recommended that you do your own research. This article was written on my own and does not reflect the views or opinions of my employer.\n\nSeeking Alpha's Disclosure: Past performance is no guarantee of future results. No recommendation or advice is being given as to whether any investment is suitable for a particular investor. Any views or opinions expressed above may not reflect those of Seeking Alpha as a whole. Seeking Alpha is not a licensed securities dealer, broker or US investment adviser or investment bank. Our analysts are third party authors that include both professional investors and individual investors who may not be licensed or certified by any institute or regulatory body.",
        "source": {
          "uri": "seekingalpha.com",
          "dataType": "news",
          "title": "Seeking Alpha"
        },
        "authors": [],
        "image": "https://static.seekingalpha.com/cdn/s3/uploads/getty_images/2177161931/image_2177161931.jpg?io=getty-c-w1536",
        "eventUri": null,
        "sentiment": 0.05882352941176472,
        "wgt": 484578836,
        "relevance": 1
      },
      {
        "uri": "8672440458",
        "lang": "eng",
        "isDuplicate": false,
        "date": "2025-05-10",
        "time": "12:39:15",
        "dateTime": "2025-05-10T12:39:15Z",
        "dateTimePub": "2025-05-10T12:30:00Z",
        "dataType": "news",
        "sim": 0,
        "url": "https://seekingalpha.com/article/4783152-invest-in-6-funds-for-6-percent-income-with-swan-like-features",
        "title": "Invest In 6 Funds For 6% Income With SWAN-Like Features",
        "body": "Analyst's Disclosure: I/we have a beneficial long position in the shares of ABT, ABBV, CI, JNJ, PFE, NVS, NVO, AZN, UNH, CL, CLX, UL, NSRGY, PG, TSN, ADM, BTI, MO, PM, KO, PEP, EXC, D, DEA, DEO, ENB, MCD, BAC, PRU, UPS, WMT, WBA, CVS, LOW, AAPL, IBM, CSCO, MSFT, INTC, T, VZ, CVX, XOM, VLO, ABB, ITW, MMM, LMT, LYB, RIO, O, NNN, WPC, ARCC, ARDC, AWF, CII, CHI, DNP, PEO, USA, UTF, UTG, RFI, RNP, RQI, TLT either through stock ownership, options, or other derivatives. I wrote this article myself, and it expresses my own opinions. I am not receiving compensation for it (other than from Seeking Alpha). I have no business relationship with any company whose stock is mentioned in this article.\n\nDisclaimer: The information presented in this article is for informational purposes only and in no way should be construed as financial advice or recommendation to buy or sell any stock. The author is not a financial advisor. Please always do further research and do your own due diligence before making any investments. Every effort has been made to present the data/information accurately; however, the author does not claim 100% accuracy. The stock portfolios presented here are model portfolios for demonstration purposes. For the complete list of our LONG positions, please see our profile on Seeking Alpha.\n\nSeeking Alpha's Disclosure: Past performance is no guarantee of future results. No recommendation or advice is being given as to whether any investment is suitable for a particular investor. Any views or opinions expressed above may not reflect those of Seeking Alpha as a whole. Seeking Alpha is not a licensed securities dealer, broker or US investment adviser or investment bank. Our analysts are third party authors that include both professional investors and individual investors who may not be licensed or certified by any institute or regulatory body.",
        "source": {
          "uri": "seekingalpha.com",
          "dataType": "news",
          "title": "Seeking Alpha"
        },
        "authors": [],
        "image": "https://static.seekingalpha.com/cdn/s3/uploads/getty_images/1179127549/image_1179127549.jpg?io=getty-c-w1536",
        "eventUri": null,
        "sentiment": 0.09019607843137245,
        "wgt": 484576755,
        "relevance": 1
      },
      {
        "uri": "8672383530",
        "lang": "eng",
        "isDuplicate": false,
        "date": "2025-05-10",
        "time": "11:42:43",
        "dateTime": "2025-05-10T11:42:43Z",
        "dateTimePub": "2025-05-10T11:41:48Z",
        "dataType": "news",
        "sim": 0,
        "url": "https://finance.yahoo.com/news/growth-story-just-beginning-top-101558603.html",
        "title": "'The Growth Story Is Just Beginning': Top Analyst Suggests 2 Tech Stocks to Buy",
        "body": "Every tech firm needs a target audience, and Allot has tailored its approach to the consumer and small- to mid-sized business markets. The company's solutions are made available on a subscription basis, and give subscribing users a zero-touch, network-native approach that enables 360-degree security. Allot notes that its platforms are deployed by more than 1,000 enterprise customers and over 500 mobile, cloud, and fixed service providers globally, and are regularly used by many millions of subscribers.\n\nIn an important development for Allot, the company recently locked in a Security-as-a-Service (SECaaS) expansion with the mobile provider Verizon, to power Verizon's mobile business security. The Verizon agreement marks a significant expansion of Allot's addressable customer base, and brings, potentially, millions of Verizon business mobile subscribers into Allot's orbit. This gives Allot a strong foundation for accretive revenue and profitability growth through the rest of 2025 and going forward.\n\nAllot's last financial release covered 4Q24, and for that quarter the company reported revenues of $24.9 million, up 2.3% year-over-year, and earnings of 5 cents per share by non-GAAP measures. The company's operating cash flow in the fourth quarter came to $4.1 million. Allot finished 2024 with $58.8 million in cash and other liquid assets on hand.\n\nTop analyst Chokshi is bullish on this cybersecurity company, basing his view mainly on the company's potential to expand from its current position. He writes, \"Reiterating ALLT as a top pick as drivers of durable 30+% growth becoming increasingly clear... We believe VZ's latest launch of My Biz Plan for business mobile users (30M subscribers), powered by ALLT's Security as a Service (SECaaS) bundled as a base option within the premium bundle, offers the highest value option to ALLT. This makes us believe ALLT is in the early innings of delivering durable 30+% SECaaS revenue (and ARR) growth for many years to come... Management remains confident in sustaining a strong initial double-digit ARR and SECaaS revenue growth guidance for CY25, with potential upside from additional regions not yet included in the outlook. The team also targets positive FCF each quarter of CY25, exceeding CY24.\" (To watch Chokshi's track record, click here)\n\nThese comments back up Chokshi's Outperform (i.e., Buy) rating on the stock, while his $13 price target implies that the shares will gain 127.5% over the next 12 months. The Northland analyst's recommendation is the only review currently on file for ALLT, which is priced at $5.72 per share. (See ALLT stock forecast)\n\nNebius Group (NBIS)\n\nThe next stock we'll look at, Nebius Group, is a Dutch-based tech firm specializing in developing the infrastructure needed to support the rapidly expanding AI sector. The company builds out a variety of services, including computing, storage, platforms, and tools that are in high demand from AI developers. Nebius Group's operations are built around its top-tier R&D team, which has accumulated years of experience in meeting the needs of AI professionals by building the world-class infrastructure that supports Big Tech's AI ventures.\n\nNebius Group operates as a holding company, with ownership of several operational firms that provide its direct services. Chief among these is the Nebius cloud platform, its core business, which is an AI-centric cloud platform designed for intensive AI workloads that include large-scale GPU clusters. In addition, the company's businesses include the Toloka data partner, focused on generative AI development; the TripleTen education-tech player, which helps people develop new skills for entering the tech field; and Avride, an autonomous driving technology purposed for both vehicles and robotic delivery units.\n\nThe recent history of this stock on the Wall Street markets is somewhat checkered. Nebius Group had Russian ownership prior to the Ukraine war, and in 2022 its stock was suspended from the NASDAQ index due to sanctions. After selling off the Russian ownership, the company returned to trading on the NASDAQ in October of 2024. The company's return to public trading on Wall Street has naturally brought it back to investors' attention.\n\nLooking at the company's latest financial results, we find that the 4Q24 report showed quarterly revenue of $37.9 million, amounting to a year-over-year increase of an impressive 466%. Growth in the AI infrastructure business, which was up 602% y/y, was the main driver of the company's revenue. However, the net loss reached $136.6 million, widening from $72.9 million a year ago. Still, as of December 31, 2024, Nebius Group had deep pockets, with nearly $2.45 billion in available cash and cash equivalent assets.\n\nNehal Chokshi is impressed by this company, especially by its growth and its ability to build itself as a solid brand in the AI industry. He says of Nebius Group, \"Our research indicates NBIS is establishing its brand as the GPUaaS cloud with the easiest and faster deployment of GPU clusters for startups and enterprises relative to hyperscalers and with a cost advantaged offering that is currently 6x less than AWS and we expect even with pricing power exercised over time, will durably be priced at least a parity or below that of the hyperscalers.\"\n\nLooking ahead, Chokshi describes a case for continued revenue expansion and cash generation here, adding of the company, \"With given current capacity plans out to CY25, we estimate that NBIS will achieve 1% AIaaS market share in CY25 and will be well positioned to achieve our 1.25% terminal period market share estimate. Additionally, we believe NBIS is well positioned to deliver a 21% FCF margin. These parameters lead to a terminal period revenue estimate of $7B and FCF estimate of $1.45B, which our analysis suggests that NBIS can largely self-fund with the exception of ~$1B of debt at a 10% interest rate we presume will be taken in C2H26.\"\n\nChokshi goes on to rate NBIS shares as Outperform (i.e., Buy), and he gives the stock a $34 price target that points toward a one-year upside potential of 24%.\n\nOverall, this stock is rated as a Strong Buy, based on a unanimous 3 positive analyst reviews in recent weeks. The stock's $27.45 trading price and $41.33 average target price together imply that it has a gain of 50.5% waiting for it in the months ahead. (See NBIS stock forecast)\n\nTo find good ideas for stocks trading at attractive valuations, visit TipRanks' Best Stocks to Buy, a tool that unites all of TipRanks' equity insights.",
        "source": {
          "uri": "finance.yahoo.com",
          "dataType": "news",
          "title": "Yahoo! Finance"
        },
        "authors": [],
        "image": "https://media.zenfs.com/en/tipranks_452/e937cb8b50adedb6956903ae26cc91fd",
        "eventUri": null,
        "sentiment": 0.3725490196078431,
        "wgt": 484573363,
        "relevance": 1
      },
      {
        "uri": "2025-05-715560807",
        "lang": "eng",
        "isDuplicate": false,
        "date": "2025-05-10",
        "time": "11:11:59",
        "dateTime": "2025-05-10T11:11:59Z",
        "dateTimePub": "2025-05-10T11:07:53Z",
        "dataType": "news",
        "sim": 0.7764706015586853,
        "url": "https://www.bdtonline.com/news/nation_world/ap-news-summary-at-7-07-a-m-edt/article_2bef9624-4c4f-5746-a479-7b63a65e39c7.html",
        "title": "AP News Summary at 7:07 a.m. EDT",
        "body": "Ukraine and its allies push for 30-day ceasefire starting Monday\n\nKYIV, Ukraine (AP) -- Ukraine and its allies are ready for a \"full, unconditional ceasefire\" with Russia for at least 30 days starting on Monday, Ukrainian FM Andrii Sybiha says. His remarks Saturday came as the leaders of four major European countries visited Kyiv, amid a push for Moscow to agree to a truce and launch peace talks on ending the nearly three-year war. It coincided with the last day of a unilateral three-day ceasefire declared by Russia that Ukraine says the Kremlin's forces have repeatedly violated. In March, the United States proposed an immediate, limited 30-day truce, which Ukraine accepted, but the Kremlin has held out for terms more to its liking.\n\nkAm{@?8\\C2?86 #FDD:2? 2EE24<D 4@?E:?F6 E@ <:== &<C2:?:2?D 2>:5 462D67:C6 5625=@4<k^Am\n\nkAmz*x'[ &<C2:?6 Wp!X -- %H@ >@?E9D 28@[ &<C2:?:2? !C6D:56?E '@=@5J>JC +6=6?D<JJ 2??@F?465 E92E &<C2:?6 H2D C625J E@ 2446AE 2 &]$] AC@A@D2= 7@C 2 b_\\52J 462D6\\7:C6[ AC@G:565 #FDD:2 5:5 E96 D2>6] %96 #FDD:2? =6256C 32=<65[ D2J:?8 2 E6>A@C2CJ 3C62< :? 9@DE:=:E:6D H@F=5 @?=J 36?67:E &<C2:?6 2?5 :ED (6DE6C? 2==:6D] $:?46 E96?[ #FDD:2 92D 4@?E:?F65 :ED >:=:E2CJ 42>A2:8?[ >2:?E2:?:?8 2EE24<D 2=@?8 E96 C@F89=J '[___\\>:=6 7C@?E =:?6 2?5 E2C86E:?8 4:G:=:2? :?7C2DECF4EFC6] x? D@>6 42D6D[ :E 92D DE6AA65 FA :ED 2EE24<D @? C6D:56?E:2= 2C62D H:E9 ?@ @3G:@FD >:=:E2CJ E2C86ED] p? pDD@4:2E65 !C6DD E2==J 32D65 @? C6A@CED 7C@> &<C2:?:2? 2FE9@C:E:6D 7@F?5 2E =62DE ''f 4:G:=:2?D 92G6 366? <:==65 2?5 >@C6 E92? '[___ H@F?565 :? #FDD:2? 26C:2= 2EE24<D D:?46 |2C49 '']k^Am\n\nkAm!2<:DE2? 2?5 x?5:2 9:?E 2E 56\\6D42=2E:@? 27E6C EC25:?8 >:DD:=6 DEC:<6Dk^Am\n\nkAmx${p|pqps Wp!X -- !2<:DE2? 2?5 x?5:2 92G6 9:?E65 2E 56\\6D42=2E:?8 E96:C 4FCC6?E 4@?7=:4E 27E6C 7:C:?8 >:DD:=6D 2E 6249 @E96C 9@FCD 62C=:6C] %96 EH@ 92G6 366? =@4<65 :? 9@DE:=:E:6D 27E6C 2 8F? >2DD24C6 =2DE >@?E9 E92E x?5:2 3=2>6D @? !2<:DE2?] !2<:DE2?'D u@C6:8? |:?:DE6C xD92B s2C E@=5 !2<:DE2?'D v6@ }6HD $2EFC52J 96 2=D@ 4@?G6J65 E9:D >6DD286 E@ &]$] $64C6E2CJ @7 $E2E6 |2C4@ #F3:@ H96? 96 4@?E24E65 9:> 27E6C DA62<:?8 E@ }6H s6=9: EH@ 9@FCD 28@] #F3:@[ 244@C5:?8 E@ 2 DE2E6>6?E[ 6>A92D:K65 56\\6D42=2E:@? 2?5 @776C65 &]$] DFAA@CE]k^Am\n\nkAmx?5:2VD 4=2D9 H:E9 !2<:DE2? D66D FD6 @7 r9:?6D6 >:DD:=6D[ uC6?49 ;6ED[ xDC26=: 5C@?6D 2?5 >@C6k^Am\n\nkAmqp}vz~z Wp!X -- x?5:2'D >:DD:=6 2?5 3@>3 DEC:<6D @? E2C86ED :? !2<:DE2? 2?5 !2<:DE2?:\\4@?EC@==65 z2D9>:C 92G6 AC@>AE65 >F=E:A=6 2EE24<D :? C6E2=:2E:@? 36EH66? E96 ?F4=62C\\2C>65 ?6:893@CD E@ E96 A@:?E E92E D@>6 2C6 ?@H 42==:?8 :E 2 56 724E@ H2C] r=2:>D @? 2EE24<D 2?5 4@F?E6C2EE24<D 92G6 5:776C65 H:56=J[ H:E9 ?6:E96C x?5:2 ?@C !2<:DE2? C6=62D:?8 >2?J DA64:7:4 56E2:=D] |2<:?8 E96 @?8@:?8 4@?7=:4E 6G6? >@C6 4@?7FD:?8[ C6D62C496CD D2J E96 :?E6C?6E 92D 366? 7=@@565 H:E9 5:D:?7@C>2E:@?[ 72=D6 4=2:>D 2?5 >2?:AF=2E65 A9@E@D 2?5 G:56@D] q@E9 D:56D 92G6 E2=<65 23@FE >:DD:=6 DEC:<6D[ 3FE :E H2D 4=62C 7C@> G:56@ E92E 3@>3D 2=D@ H6C6 5C@AA65 @? D@>6 E2C86ED[ A@DD:3=J 7C@> 5C@?6D]k^Am\n\nkAm%2C:77 E2=<D 368:? 36EH66? &$ 2?5 r9:?6D6 @77:4:2=D :? v6?6G2 2D E96 H@C=5 =@@<D 7@C D:8?D @7 9@A6k^Am\n\nkAmvt}t'p Wp!X -- r9:?6D6 DE2E6 >65:2 C6A@CE E96 &]$] %C62DFCJ $64C6E2CJ 2?5 p>6C:42'D E@A EC256 ?68@E:2E@C 92G6 368F? E2=<D H:E9 9:89\\C2?<:?8 r9:?6D6 @77:4:2=D :? $H:EK6C=2?5 E@ 56\\6D42=2E6 2 5:DAFE6 E92E E9C62E6?D E@ 4FE @77 EC256 36EH66? E96 H@C=5'D EH@ 3:886DE 64@?@>:6D 2?5 52>286 E96 8=@32= 64@?@>J] %96 ):?9F2 }6HD p86?4J D2JD %C62DFCJ $64C6E2CJ $4@EE q6DD6?E 2?5 &]$] %C256 #6AC6D6?E2E:G6 y2>:6D@? 92G6 368F? >66E:?8D :? v6?6G2 H:E9 2 r9:?6D6 56=682E:@? =65 3J ':46 !C6>:6C w6 {:76?8] s:A=@>2ED 7C@> 3@E9 D:56D 2=D@ 4@?7:C>65 E92E E96 E2=<D 92G6 368F? 3FE DA@<6 @77\\E96\\C64@C5] !C@DA64ED 7@C 2 >2;@C 3C62<E9C@F89 2AA62C 5:>] qFE E96C6 :D 9@A6 E92E E96 EH@ 4@F?EC:6D H:== D42=6 324< E96 >2DD:G6 E2I6D - E2C:77D - E96J'G6 D=2AA65 @? 6249 @E96C'D 8@@5D]k^Am\n\nkAm!@A6 {6@ )x'VD rC6@=6 96C:E286 9:89=:89ED 4@>A=6I 9:DE@CJ @7 C24:D> 2?5 E96 49FC49 :? p>6C:42k^Am\n\nkAm}t( ~#{tp}$ Wp!X -- %96 6=64E:@? @7 !@A6 {6@ )x'[ H9@ :D E96 7:CDE &]$] A@A6 2?5 92D rC6@=6 C@@ED[ :D C2:D:?8 >@C6 2H2C6?6DD 23@FE E96 4@>A=6I:EJ @7 E96 rC6@=6 :56?E:EJ] %96 A@A6 92D ?@E @A6?=J DA@<6? 23@FE 9:D C24:2= :56?E:EJ[ 3FE 9:DE@C:42= C64@C5D 9:89=:89E 2 DE@CJ @7 >:8C2E:@? 4@>>@? E@ p7C:42? p>6C:42? 72>:=:6D =62G:?8 E96 C24:D> @7 E96 y:> rC@H $@FE9] q=24< 2?5 rC6@=6 r2E9@=:4D :? E96 &]$] D2J E92E 2 A@A6 H9@ 9@=5D E96D6 >F=E:A=6 :56?E:E:6D :D ;FDE H92E E96 r2E9@=:4 r9FC49 ?665D E@ F?:7J E96 8=@32= 49FC49 2?5 6=6G2E6 E96 AC@7:=6 @7 q=24< r2E9@=:4D[ H9@D6 9:DE@CJ 2?5 4@?EC:3FE:@?D[ E96J D2J[ 92G6 366? @G6C=@@<65]k^Am\n\nkAmyF586 A2FD6D >F49 @7 %CF>A 25>:?:DEC2E:@?VD >2DD:G6 5@H?D:K:?8 @7 7656C2= 286?4:6Dk^Am\n\nkAm$p} u#p}rx$r~ Wp!X -- p r2=:7@C?:2 ;F586 92D @C56C65 E96 %CF>A 25>:?:DEC2E:@? E@ 92=E >F49 @7 :ED >2DD:G6 5@H?D:K:?8 @7 E96 7656C2= H@C<7@C46] yF586 $FD2? x==DE@? :? $2? uC2?4:D4@ D2:5 !C6D:56?E s@?2=5 %CF>A 2?5 9:D 25>:?:DEC2E:@? 72:=65 E@ 86E 2AAC@G2= 7C@> r@?8C6DD E@ :?:E:2E6 E96 4FED] %92E :D C6BF:C65 3J E96 r@?DE:EFE:@?] %96 @C56C :DDF65 uC:52J 4@>6D :? C6DA@?D6 E@ 2 =2HDF:E 7:=65 3J 2 2 4@2=:E:@? @7 =23@C F?:@?D[ ?@?AC@7:E 8C@FAD[ 4:E:6D 2?5 4@F?E:6D] s6A2CE>6?E @7 yFDE:46 =2HJ6CD D2J %CF>A'D 6I64FE:G6 @C56C 2?5 2 s~vt >6>@ 42==:?8 7@C =2C86\\D42=6 C65F4E:@?D >6C6=J AC@G:565 8F:52?46 2?5 86?6C2= AC:?4:A=6D]k^Am\n\nkAm|2J@C @7 }6H2C<[ }6H y6CD6J[ C6=62D65 27E6C 2CC6DE 2E :>>:8C2E:@? 56E6?E:@? 46?E6Ck^Am\n\nkAm%96 >2J@C @7 }6H2C<[ }6H y6CD6J[ 92D 366? C6=62D65 7C@> 4FDE@5J 27E6C 36:?8 2CC6DE65 2E 2 7656C2= :>>:8C2E:@? 56E6?E:@? 46?E6C H96C6 96 92D 366? AC@E6DE:?8 :ED @A6?:?8 E9:D H66<] p 7656C2= AC@D64FE@C D2JD @? E96 D@4:2= A=2E7@C> ) E92E #2D q2C2<2 4@>>:EE65 EC6DA2DD uC:52J 2?5 :8?@C65 H2C?:?8D E@ =62G6 E96 s6=2?6J w2== 724:=:EJ] (:E?6DD6D D2J q2C2<2 EC:65 E@ 6?E6C E96 46?E6C H:E9 E9C66 >6>36CD @7 }6H y6CD6J'D 4@?8C6DD:@?2= 56=682E:@? H9@ 2CC:G65 F?2??@F?465 E@ :?DA64E :E] %96J D2J 96 H2D 2CC6DE65 27E6C C6EFC?:?8 E@ AF3=:4 AC@A6CEJ] q2C2<2 92D AC@E6DE65 E96 4@?DECF4E:@? 2?5 @A6?:?8 @7 E96 '[___\\365 56E6?E:@? 46?E6C[ :?4=F5:?8 7:=:?8 2 =2HDF:E 492==6?8:?8 :ED A6C>:ED]k^Am\n\nkAm$@G:6E\\6C2 DA2464C27E A=F?86D E@ t2CE9 27E6C db J62CD DEF4< :? @C3:Ek^Am\n\nkAmp $@G:6E\\6C2 DA2464C27E 92D A=F?865 E@ t2CE9[ >@C6 E92? 2 92=7\\46?EFCJ 27E6C :ED 72:=65 =2F?49 E@ '6?FD] %96 92=7\\E@? DA2464C27E 76== @FE @7 @C3:E @? $2EFC52J] %96 tFC@A62? &?:@? $A246 $FCG6:==2?46 2?5 %C24<:?8 4@?7:C>65 :ED F?4@?EC@==65 6?ECJ] xE H2D ?@E :>>65:2E6=J <?@H? H96C6 :E 42>6 5@H? @C 9@H >F49[ :7 2?J[ @7 E96 z@D>@D cga DA2464C27E DFCG:G65 E96 7:6CJ 56D46?E E9C@F89 E96 2E>@DA96C6] tIA6CED D2:5 29625 @7 E:>6 E92E D@>6 :7 ?@E 2== @7 :E >:89E 4@>6 4C2D9:?8 5@H?[ 8:G6? :E H2D 3F:=E E@ H:E9DE2?5 2 =2?5:?8 @? '6?FD] %96 492?46D @7 2?J@?6 36:?8 4=@336C65 3J E96 DA2464C27E 563C:D H6C6 6I4665:?8=J =@H]k^Am\n\nkAmxD E96 $@FE96C? 2446?E 7:I:?V E@ 5:D2AA62C :? A2CED @7 E96 &$ $@FE9nk^Am\n\nkAm$@FE96C? 2446?ED 2C6 5:D2AA62C:?8 :? D@>6 A2CED @7 E96 &]$] $@FE9 5F6 E@ E96 >:8C2E:@? @7 A6@A=6 :?E@ E96 C68:@? 7C@> @E96C A2CED @7 E96 &?:E65 $E2E6D 2?5 2C@F?5 E96 H@C=5] p D6C:6D @7 C6D62C49 A2A6CD C6=62D65 =2E6 =2DE J62C 49C@?:4=6D E96 5:>:?:D9>6?E @7 E96 $@FE96C? 2446?E 2>@?8 q=24< C6D:56?ED @7 E96 pE=2?E2 2C62[ H9:E6 H@C<:?8\\4=2DD A6@A=6 :? E96 }6H ~C=62?D 2C62 2?5 A6@A=6 H9@ 8C6H FA :? #2=6:89[ }@CE9 r2C@=:?2] |@C6 E92? d]g >:==:@? A6@A=6 92G6 >@G65 E@ E96 $@FE9 :? E96 a_a_D] %92EVD 7@FC E:>6D E96 4@>3:?65 2>@F?E @7 E96 E9C66 @E96C C68:@?D] qFE @?6 DEF5J 2FE9@C ?@E6D E96 $@FE96C? 2446?E :D F?=:<6=J E@ 5:D2AA62C 4@>A=6E6=J]k^Am",
        "source": {
          "uri": "bdtonline.com",
          "dataType": "news",
          "title": "Bluefield Daily Telegraph"
        },
        "authors": [
          {
            "uri": "associated_press@bdtonline.com",
            "name": "Associated Press",
            "type": "author",
            "isAgency": false
          }
        ],
        "image": "https://bloximages.chicago2.vip.townnews.com/bdtonline.com/content/tncms/custom/image/eb1e85e6-05b9-11e7-b62c-6b1accec9988.jpg?resize=600%2C315",
        "eventUri": "eng-10596770",
        "sentiment": 0.08235294117647052,
        "wgt": 484571519,
        "relevance": 1
      },
      {
        "uri": "8672337431",
        "lang": "spa",
        "isDuplicate": false,
        "date": "2025-05-10",
        "time": "10:57:01",
        "dateTime": "2025-05-10T10:57:01Z",
        "dateTimePub": "2025-05-10T10:55:13Z",
        "dataType": "news",
        "sim": 0,
        "url": "https://www.lasexta.com/motor/noticias/poco-mas-200-traccion-total-cupra-formentor-vuelve-todavia-mas-interesante_20250510681f309157a5aa2cde1f6f5f.html",
        "title": "Poco m\u00e1s de 200 CV y tracci\u00f3n total, el CUPRA Formentor se vuelve todav\u00eda m\u00e1s interesante",
        "body": "El superventas de CUPRA se ha renovado por completo, pero, \u00bfqu\u00e9 es lo que cambia? Te lo contamos\n\nCUPRA se ha sacado algo intereante con el Formentor, su SUV estrella, y esta vez viene con una novedad que hace salivar: una versi\u00f3n 4Drive con 204 CV y tracci\u00f3n total que baja el precio de entrada a la gama. No es el VZ5, pero este Formentor 2.0 TSI 4Drive es un lobo con piel de cordero, un coche que combina el car\u00e1cter deportivo de la marca con un precio m\u00e1s terrenal. \u00bfListos para saber por qu\u00e9 este cachorro espa\u00f1ol es ahora m\u00e1s apetecible que nunca?\n\nEl Formentor siempre ha sido el ni\u00f1o mimado de CUPRA, y lleva m\u00e1s de 120.000 unidades vendidas desde 2020. Su restyling de 2025 trajo un frontal afilado como un tibur\u00f3n, tecnolog\u00eda a raudales y una gama de motores que va desde lo eficiente hasta lo salvaje. Pero esta nueva variante 4Drive de 204 CV es la guinda: ofrece el agarre de la tracci\u00f3n integral sin vaciarte la cartera. B\u00e1sicamente, es CUPRA regal\u00e1ndonos la posibilidad de tener un pr\u00e9mium a un precio algo m\u00e1s razonable.\n\nEl Formentor 4Drive lleva un 2.0 TSI de gasolina que suelta 204 CV y 320 Nm, emparejado con un cambio DSG de 7 marchas que no se anda con tonter\u00edas. No va a hacerte pegar gritos como el VZ de 333 CV, pero te va a plantar de 0 a 100 km/h en unos 7,5 segundos y se estira hasta 225 km/h. Vamos, que no te vas a quedar dormido al volante. La tracci\u00f3n 4Drive es un cerebrito: reparte la fuerza entre las ruedas para que las curvas r\u00e1pidas sean pan comido y las carreteras h\u00famedas no te hagan rezar un padrenuestro cada vez que las encuentres.\n\nLo mejor es c\u00f3mo se nota la conducci\u00f3n. El chasis adaptativo DCC, que cuenta con hasta 15 niveles de ajuste, te deja jugar con la firmeza de la suspensi\u00f3n. \u00bfQuieres ir tranquilo? Es c\u00f3modo como un compacto premium. \u00bfBuscas emociones? Ponlo en modo Sport y el Formentor se agarra al asfalto como si tuviera u\u00f1as. La direcci\u00f3n es precisa, y el sonido del escape, aunque no es un V8, tiene ese toque bronco que te saca una sonrisa.\n\nEl Formentor 2025 no solo corre, tambi\u00e9n enamora con su look. El frontal \"shark-nose\", los faros LED triangulares y la barra luminosa trasera con el logo CUPRA iluminado son puro espect\u00e1culo. Esta versi\u00f3n 4Drive no se queda atr\u00e1s: llantas de 18 pulgadas, detalles en cobre y un difusor trasero que grita deportividad. Es un coche que no pasa desapercibido, y en un parking lleno de SUVs grises, eso es un punto gordo.\n\nDentro del habit\u00e1culo, la pantalla de 12,9 pulgadas domina el salpicadero, con un sistema de infoentretenimiento que por fin est\u00e1 a la altura. Incluye Android Auto, Apple CarPlay y la app My CUPRA para abrir el coche o pagar parkings desde el m\u00f3vil. \u00bfSeguridad? De serie lleva frenada de emergencia, Lane Assist Plus y detector de \u00e1ngulo muerto. No es un Tesla (que para algunos es un alivio), pero no le falta de nada para hacerte la vida f\u00e1cil.\n\nLo m\u00e1s jugoso de este Formentor 4Drive es su precio: 48.103 \u20ac sin descuentos, pero con promociones y financiaci\u00f3n puedes bajarlo bastante. Comparado con rivales como el Renault Arkana o el Toyota C-HR, el CUPRA ofrece m\u00e1s car\u00e1cter y una tracci\u00f3n total que ayuda much\u00edsimo en las carreteras complicadas. El maletero, de 420 litros, no es el m\u00e1s grande, pero para un SUV compacto de 4,45 metros, cumple.\n\nEn resumen, este Formentor 4Drive de 204 CV es la opci\u00f3n para quienes quieren un SUV deportivo sin hipotecarse. No te va a dejar pegado al asiento como un VZ5, pero tiene el equilibrio perfecto entre prestaciones, estilo y precio. CUPRA ha cogido su superventas y lo ha hecho a\u00fan m\u00e1s irresistible. Ahora dime, \u00bfte animas a darle ca\u00f1a?",
        "source": {
          "uri": "lasexta.com",
          "dataType": "news",
          "title": "LaSexta"
        },
        "authors": [],
        "image": "https://fotografias.lasexta.com/clipping/cmsimages01/2025/05/05/621285EA-2E57-4D23-A449-52168E2D5A0A/cupra-formentor-4x4_69.jpg?crop=1920,1080,x0,y101&width=1280&height=720&optimize=low&format=jpg",
        "eventUri": null,
        "sentiment": null,
        "wgt": 484570621,
        "relevance": 1
      }
    ],
    "totalResults": 1737,
    "page": 1,
    "count": 5,
    "pages": 348
  }
}