{
  "articles": {
    "results": [
      {
        "uri": "8669660972",
        "lang": "deu",
        "isDuplicate": false,
        "date": "2025-05-08",
        "time": "14:22:36",
        "dateTime": "2025-05-08T14:22:36Z",
        "dateTimePub": "2025-05-08T14:12:17Z",
        "dataType": "news",
        "sim": 0,
        "url": "https://www.onetz.de/oberpfalz/gebenbach/zweite-insolvenz-hammermeister-gmbh-drei-jahren-id5091581.html",
        "title": "Zweite Insolvenz der Hammermeister GmbH in drei Jahren",
        "body": "Die Firma Hammermeister ist zum zweiten Mal insolvent. Bis Ende Mai muss eine L\u00f6sung her.\n\nDie Hammermeister GmbH mit Sitz zwischen Hahnbach und Gebenbach hat Anfang M\u00e4rz 2025 erneut Insolvenz angemeldet. Damit wiederholt sich ein Kapitel, das vielen Mitarbeitenden noch in Erinnerung sein d\u00fcrfte: Bereits im August 2022 war das Unternehmen in wirtschaftliche Schieflage geraten - damals ausgel\u00f6st durch einen Konflikt mit einem langj\u00e4hrigen Kunden. Die Folge: Ein Vergleich vor Gericht, ein Kredit im mittleren sechsstelligen Bereich. Die erste Insolvenz war unausweichlich.\n\nIm Herbst 2022 dann die Rettung: Die WMT Wieland Metalltechnologie GmbH aus Krumbach \u00fcbernahm das Unternehmen, inklusive aller Mitarbeiter. Doch die erhoffte langfristige Stabilit\u00e4t blieb aus. \"Die Idee war, eine Standardmaschine zu entwickeln, um konstante Ums\u00e4tze zu erzielen\", erkl\u00e4rt Stephan Meyer, Insolvenzverwalter aus der Kanzlei Schwartz Rechtsanw\u00e4lte. \"Die Entwicklung wurde abgeschlossen, aber der Markteintritt ist ausgeblieben.\"\n\nAuch der aktuelle Gesch\u00e4ftsf\u00fchrer Dominik Seitz, seit Dezember 2022 im Amt, benennt mehrere Gr\u00fcnde f\u00fcr die neuerliche Schieflage. \"Seit Sommer 2024 hat sich bei vielen Kunden eine gro\u00dfe Zur\u00fcckhaltung breit gemacht. Entscheidungen werden ein halbes Jahr oder l\u00e4nger vertagt.\" Das Unternehmen sei zu klein, um das geringe Auftragsaufkommen lange zu meistern. Zwar konnte Hammermeister den Umsatz von 2023 - laut Seitz einem Findungsjahr - im Jahr 2024 auf 6,5 Millionen Euro verdreifachen - rund die H\u00e4lfte davon durch Projekte in der R\u00fcstungsindustrie - doch das reichte nicht.\n\nHammermeister steht beispielhaft f\u00fcr die Herausforderungen im Sondermaschinenbau in Deutschland. Die Anlagen sind hochkomplex, Einzelst\u00fccke mit Auftragsvolumen im Millionenbereich. Kunden kommen aus der Automobil-, Elektronik- und zunehmend auch aus der Verteidigungsindustrie. \"Unsere Maschinen bauen Komponenten im Mikrometer-Bereich zusammen, etwa Radiostecker oder Verkabelungssysteme\", erkl\u00e4rt Seitz. Was fr\u00fcher h\u00e4ndisch gemacht wurde, will Hammermeister automatisieren.\n\nDas Unternehmen hat sich in Nischenfeldern einen Ruf f\u00fcr technische Exzellenz erarbeitet. Dieses Know-how - vor allem in Person des Firmengr\u00fcnders Norbert Hammermeister - ist ein entscheidender Faktor f\u00fcr potenzielle Investoren. \"Alle bisherigen Interessenten sagen: Wir brauchen Herrn Hammermeister an Bord\", sagt Insolvenzverwalter Meyer. Und davon gibt es einige: Rund zehn potenzielle K\u00e4ufer haben bislang Interesse bekundet - aus der Region, aber auch mit internationalem Hintergrund, etwa aus China.\n\nDie Insolvenzgeldvorfinanzierung sichert die L\u00f6hne noch bis Ende Mai - ein kurzes Zeitfenster, um eine L\u00f6sung zu finden. Meyer beschreibt es so: \"Wird wieder eine enge Kiste. Aber wir sind dran.\" Der Gesch\u00e4ftsbetrieb wird fortgef\u00fchrt, Auftraggeber seien kooperativ, offene Fragen zu Garantie und Fertigstellung gekl\u00e4rt.\n\nDie Vermieterin des Firmengeb\u00e4udes hat signalisiert, auch k\u00fcnftig zur Verf\u00fcgung zu stehen. Auch die Belegschaft zeigt sich bislang stabil. \"Das Team ist loyal, eingespielt und technisch hochkompetent\", lobt Gesch\u00e4ftsf\u00fchrer Seitz. Aktuell sind es noch 31 Mitarbeitende - lediglich drei K\u00fcndigungen gab es, eine kurz vor und zwei im Zuge der Insolvenz. Dennoch mahnt Meyer zur realistischen Vorbereitung: \"Wir versuchen, Zuversicht zu geben. Aber ich sage den Leuten auch: Bereitet euch auf den Ernstfall vor.\"",
        "source": {
          "uri": "onetz.de",
          "dataType": "news",
          "title": "onetz.de"
        },
        "authors": [],
        "image": "https://www.onetz.de/f/ic/og/articlemedia/2025/05/08/d8fb3c25-0446-4266-9e57-287931572251.jpg",
        "eventUri": null,
        "sentiment": null,
        "wgt": 484410156,
        "relevance": 1
      },
      {
        "uri": "2025-05-713802024",
        "lang": "eng",
        "isDuplicate": false,
        "date": "2025-05-08",
        "time": "14:08:20",
        "dateTime": "2025-05-08T14:08:20Z",
        "dateTimePub": "2025-05-08T14:07:00Z",
        "dataType": "news",
        "sim": 0,
        "url": "https://www.thestreet.com/retail/walmarts-sams-club-takes-drastic-action-to-edge-out-costco",
        "title": "Walmart's Sam's Club takes drastic action to edge out Costco",
        "body": "The warehouse grocer's latest moves will make customers very happy.\n\nAnyone who's gone to the supermarket recently will tell you: it's a jungle in there.\n\nBetween all the recent food and beverage trends that have taken over the aisles, seemingly countless new ways to purchase your items, and the rising cost of groceries, it's pretty challenging to make sense of what used to be a routine trip to the store.\n\nTake, for example, all the new types of foods the average consumer now encounters.\n\nIt can be tough enough to make sense of labels; many of us also have difficulty distinguishing what's healthy from what is simply marketing.\n\nOat cereal, for example, may not be as heart healthy as a cut of organic, grass-fed steak. But only one of these products has that little red check mark we've been conditioned to look for.\n\nIt's even harder to tell what's really meat and what's plant-based, but intended to look like meat.\n\nSuch is the case for many items purporting to either be healthy, palatable, or affordable.\n\nThe truth is, very little about the grocery store is that simple nowadays.\n\nGrocery shopping is getting complicated\n\nMany of these dilemmas are common among traditional grocery stores.\n\nBut some things get even more complicated once you enter a members-only grocery warehouse, like a Costco (COST) or Walmart-owned Sam's Club (WMT) .\n\nIt's true that these retailers offer many more straightforward products; their popular private label brands are often hailed as some of the highest-quality and affordable offerings available to consumers.\n\nMore Walmart:\n\nBut simple processes like checking out and paying can be more of an obstacle.\n\nSam's Club, for instance, is trying to get its members to move over to its app almost exclusively. It recently announced it would do away with traditional checkouts and instead prompt customers to scan and pay for everything on the mobile app.\n\nSam's Club makes a major membership change\n\nIf the mobile change wasn't enough, Sam's Club is making another shift that may make potential customers happy.\n\nThe massive retailer announced that for a limited time, it will slash its membership fee.\n\nNew Sam's Club customers can join the warehouse for just $20 for the first year. Typically, the cost to belong to Sam's Club is $50, making this a 60% discount.\n\nMembership to Sam's Club includes the following perks:\n\nFor comparison, the annual cost for a Costco membership starts at $65, and the Washington-based warehouse grocer is not running a similar promotion.\n\nThe sale, however, is limited. New customers can only access the deal through the end of the first week of May.",
        "source": {
          "uri": "thestreet.com",
          "dataType": "news",
          "title": "TheStreet"
        },
        "authors": [
          {
            "uri": "jena_warburton@thestreet.com",
            "name": "Jena Warburton",
            "type": "author",
            "isAgency": false
          }
        ],
        "image": "https://www.thestreet.com/.image/ar_1.91%2Cc_fill%2Ccs_srgb%2Cfl_progressive%2Cg_faces:center%2Cq_auto:good%2Cw_1200/MTkwMDc4NjY4MDQxNjI2OTA1/sams-club-costco.jpg",
        "eventUri": null,
        "sentiment": 0.2470588235294118,
        "wgt": 484409300,
        "relevance": 1
      },
      {
        "uri": "2025-05-713739609",
        "lang": "jpn",
        "isDuplicate": false,
        "date": "2025-05-08",
        "time": "13:08:18",
        "dateTime": "2025-05-08T13:08:18Z",
        "dateTimePub": "2025-05-08T12:55:56Z",
        "dataType": "news",
        "sim": 0,
        "url": "https://jp.investing.com/news/company-news/article-93CH-1106379",
        "title": "\u30a6\u30a9\u30eb\u30de\u30fc\u30c8\u3068Alquist\u30013D\u30d7\u30ea\u30f3\u30c8\u5efa\u8a2d\u3067\u91cd\u8981\u306a\u30de\u30a4\u30eb\u30b9\u30c8\u30fc\u30f3\u3092\u9054\u6210 \u57f7\u7b46\uff1a Investing.com",
        "body": "Investing.com -- \u30a6\u30a9\u30eb\u30de\u30fc\u30c8\u30fb\u30b9\u30c8\u30a2\u30fc\u30ba\uff08NYSE: WMT\uff09\u3068\u5efa\u8a2d\u6280\u8853\u4f01\u696dAlquist\u306f\u3001\u30a2\u30e9\u30d0\u30de\u5dde\u30aa\u30fc\u30a6\u30a7\u30f3\u30ba\u30fb\u30af\u30ed\u30b9\u30fb\u30ed\u30fc\u30c9\u306e\u30b9\u30fc\u30d1\u30fc\u30bb\u30f3\u30bf\u30fc\u3067\u5148\u9032\u7684\u306a3D\u30b3\u30f3\u30af\u30ea\u30fc\u30c8\u30d7\u30ea\u30f3\u30c8\uff083DCP\uff09\u6280\u8853\u3092\u7528\u3044\u305f\u5927\u898f\u6a21\u306a\u62e1\u5f35\u30d7\u30ed\u30b8\u30a7\u30af\u30c8\u3092\u5b8c\u4e86\u3057\u305f\u3002\u5e74\u9593\u53ce\u76ca6,800\u5104\u30c9\u30eb\u4ee5\u4e0a\u3092\u8a87\u308b7,900\u5104\u30c9\u30eb\u898f\u6a21\u306e\u5c0f\u58f2\u5927\u624b\u30a6\u30a9\u30eb\u30de\u30fc\u30c8\u306f\u3001InvestingPro\u306e\u30c7\u30fc\u30bf\u306b\u3088\u308b\u3068\u3001\u6295\u4e0b\u8cc7\u672c\u5229\u76ca\u738713%\u306e\u5f37\u56fa\u306a\u8ca1\u52d9\u5065\u5168\u6027\u3092\u7dad\u6301\u3057\u3066\u304a\u308a\u3001\u9769\u65b0\u7684\u306a\u62e1\u5f35\u30d7\u30ed\u30b8\u30a7\u30af\u30c8\u306b\u9069\u3057\u305f\u4f4d\u7f6e\u306b\u3042\u308b\u3002\u3053\u306e\u30d7\u30ed\u30b8\u30a7\u30af\u30c8\u3067\u306f\u3001\u5e97\u8217\u306e\u30d4\u30c3\u30af\u30a2\u30c3\u30d7\u30a8\u30ea\u30a2\u7528\u306b5,000\u5e73\u65b9\u30d5\u30a3\u30fc\u30c8\u306e\u58c1\u3092\u5efa\u8a2d\u3057\u3001\u308f\u305a\u304b1\u9031\u9593\u3067\u5b8c\u6210\u3055\u305b\u3001\u5efa\u8a2d\u901f\u5ea6\u3068\u30b3\u30b9\u30c8\u52b9\u7387\u306e\u65b0\u57fa\u6e96\u3092\u793a\u3057\u305f\u3002\n\n\u30a6\u30a9\u30eb\u30de\u30fc\u30c8\u3068Alquist\u306e\u5354\u529b\u95a2\u4fc2\u306f\u3001\u7279\u306b\u30d7\u30ed\u30b8\u30a7\u30af\u30c8\u671f\u9593\u3068\u4e88\u7b97\u306b\u95a2\u3059\u308b\u5efa\u8a2d\u696d\u754c\u306e\u9577\u5e74\u306e\u8ab2\u984c\u306b\u5bfe\u51e6\u3059\u308b3DCP\u306e\u53ef\u80fd\u6027\u3092\u793a\u3057\u3066\u3044\u308b\u3002Alquist\u304c2\u3064\u306e3DCP\u30b7\u30b9\u30c6\u30e0\u3092\u4f7f\u7528\u3057\u305f\u3053\u3068\u3067\u30015\u4eba\u306e\u30c1\u30fc\u30e0\u304c75\u6642\u9593\u306e\u7a3c\u50cd\u6642\u9593\u5185\u306b16\u30d5\u30a3\u30fc\u30c8\u306e\u9ad8\u3055\u306e\u58c1\u3092\u5efa\u8a2d\u3059\u308b\u3053\u3068\u304c\u3067\u304d\u3001\u5f93\u6765\u306e\u65b9\u6cd5\u3088\u308a\u3082\u5927\u5e45\u306b\u901f\u3044\u30da\u30fc\u30b9\u3092\u5b9f\u73fe\u3057\u305f\u3002\u3053\u306e\u52b9\u7387\u6027\u306f\u3001\u30a6\u30a9\u30eb\u30de\u30fc\u30c8\u306e5.07%\u306e\u53ce\u76ca\u6210\u9577\u3068\u5f37\u56fa\u306a\u5e02\u5834\u30dd\u30b8\u30b7\u30e7\u30f3\u306b\u793a\u3055\u308c\u308b\u3088\u3046\u306b\u3001\u540c\u793e\u306e\u5e83\u7bc4\u306a\u4e8b\u696d\u6210\u529f\u3068\u4e00\u81f4\u3057\u3066\u3044\u308b\u3002\u30a6\u30a9\u30eb\u30de\u30fc\u30c8\u306e\u8ca1\u52d9\u6307\u6a19\u3068\u6210\u9577\u53ef\u80fd\u6027\u306b\u95a2\u3059\u308b\u8a73\u7d30\u306a\u5206\u6790\u306b\u3064\u3044\u3066\u306f\u3001\u6295\u8cc7\u5bb6\u306fInvestingPro\u3092\u901a\u3058\u3066\u5305\u62ec\u7684\u306a\u8abf\u67fb\u306b\u30a2\u30af\u30bb\u30b9\u3067\u304d\u3001\u7c73\u56fd\u306e1,400\u4ee5\u4e0a\u306e\u682a\u5f0f\u306b\u95a2\u3059\u308b\u72ec\u5360\u7684\u306a\u6d1e\u5bdf\u3092\u63d0\u4f9b\u3057\u3066\u3044\u308b\u3002\n\nAlquist 3D\u306eCEO\u3067\u3042\u308b\u30d1\u30c8\u30ea\u30c3\u30af\u30fb\u30ad\u30e3\u30e9\u30cf\u30f3\u6c0f\u306f\u3001\u5546\u696d\u5efa\u8a2d\u306b\u304a\u3051\u308b3D\u30d7\u30ea\u30f3\u30c8\u306e\u62e1\u5f35\u6027\u3092\u5f37\u8abf\u3057\u3001\u5c0f\u58f2\u62e1\u5927\u306b\u304a\u3051\u308b\u305d\u306e\u5229\u70b9\u3092\u5f37\u8abf\u3057\u305f\u3002\u7dcf\u5408\u8acb\u8ca0\u696d\u8005FMGI, Inc.\u306e\u793e\u9577\u517cCEO\u3067\u3042\u308b\u30c0\u30ea\u30f3\u30fb\u30ed\u30b9\u6c0f\u306b\u3088\u308b\u3068\u3001\u3053\u306e\u5efa\u8a2d\u65b9\u6cd5\u306f\u6700\u521d\u306e3DCP\u5efa\u8a2d\u3068\u6bd4\u8f03\u3057\u3066\u30b3\u30b9\u30c8\u309215%\u524a\u6e1b\u3057\u305f\u3060\u3051\u3067\u306a\u304f\u3001\u6750\u6599\u5ec3\u68c4\u7269\u308255%\u524a\u6e1b\u3057\u305f\u3002\n\n\u30a6\u30a9\u30eb\u30de\u30fc\u30c8\u306e\u5efa\u8a2d\u62c5\u5f53\u526f\u793e\u9577\u3067\u3042\u308bLB\u30fb\u30b8\u30e7\u30f3\u30bd\u30f3\u6c0f\u306f\u3001\u540c\u793e\u306e\u30a4\u30ce\u30d9\u30fc\u30b7\u30e7\u30f3\u3078\u306e\u30a2\u30d7\u30ed\u30fc\u30c1\u306f\u3001\u30d7\u30ed\u30bb\u30b9\u3092\u5408\u7406\u5316\u3057\u3001\u30b3\u30b9\u30c8\u3068\u30bf\u30a4\u30e0\u30e9\u30a4\u30f3\u3092\u524a\u6e1b\u3059\u308b\u3053\u3068\u3092\u76ee\u6307\u3057\u3066\u304a\u308a\u3001\u6700\u7d42\u7684\u306b\u306f\u9867\u5ba2\u306b\u5229\u76ca\u3092\u3082\u305f\u3089\u3057\u3001\u5efa\u8a2d\u90e8\u9580\u306e\u5909\u5316\u3092\u4fc3\u9032\u3059\u308b\u3068\u8ff0\u3079\u305f\u3002\n\n3DCP\u6280\u8853\u306f\u307e\u305f\u3001\u6750\u6599\u52b9\u7387\u3001\u30ed\u30dc\u30c3\u30c8\u5de5\u5b66\u306b\u3088\u308b\u52b4\u50cd\u6700\u9069\u5316\u3001\u5f93\u6765\u306e\u8db3\u5834\u3084\u652f\u6301\u304c\u4e0d\u8981\u306a\u305f\u3081\u5b89\u5168\u30ea\u30b9\u30af\u306e\u8efd\u6e1b\u3082\u63d0\u4f9b\u3059\u308b\u3002\u3055\u3089\u306b\u3001Alquist\u306e\u30c1\u30fc\u30e0\u306f\u3001\u901a\u5e38\u306e\u5efa\u8a2d\u3092\u9045\u3089\u305b\u308b\u60aa\u5929\u5019\u306b\u5bfe\u3059\u308b\u3053\u306e\u6280\u8853\u306e\u8010\u6027\u3082\u5b9f\u8a3c\u3057\u305f\u3002\n\nSika USA\u306f\u7279\u6b8a\u306a\u30b3\u30f3\u30af\u30ea\u30fc\u30c8\u6df7\u5408\u7269\u3092\u4f9b\u7d66\u3057\u3001\u901f\u5ea6\u3068\u8010\u4e45\u6027\u306e\u30d0\u30e9\u30f3\u30b9\u3092\u63d0\u4f9b\u3059\u308b\u3053\u3068\u3067\u30d7\u30ed\u30b8\u30a7\u30af\u30c8\u306e\u6210\u529f\u306b\u8ca2\u732e\u3057\u305f\u3002FMGI\u306f\u73fe\u5834\u3067\u306e3DCP\u3068\u5f93\u6765\u306e\u5efa\u8a2d\u4f5c\u696d\u306e\u7d71\u5408\u3092\u8abf\u6574\u3057\u305f\u3002\n\n\u52b4\u50cd\u529b\u958b\u767a\u3078\u306e\u53d6\u308a\u7d44\u307f\u306e\u4e00\u74b0\u3068\u3057\u3066\u3001Alquist\u306fColorado\u306e\u30b0\u30ea\u30fc\u30ea\u30fc\u306b\u3042\u308b\u30a8\u30a4\u30e0\u30ba\u30fb\u30b3\u30df\u30e5\u30cb\u30c6\u30a3\u30ab\u30ec\u30c3\u30b8\u3068\u63d0\u643a\u3057\u30663DCP\u30ab\u30ea\u30ad\u30e5\u30e9\u30e0\u3092\u958b\u767a\u3057\u3001\u5927\u898f\u6a21\u306a3D\u30d7\u30ea\u30f3\u30c8\u30d7\u30ed\u30b8\u30a7\u30af\u30c8\u306e\u305f\u3081\u306e\u30d3\u30eb\u30c0\u30fc\u3092\u80b2\u6210\u3057\u3066\u3044\u308b\u3002\n\n\u3053\u306e\u30d7\u30ec\u30b9\u30ea\u30ea\u30fc\u30b9\u306f\u3001\u30aa\u30fc\u30a6\u30a7\u30f3\u30ba\u30fb\u30af\u30ed\u30b9\u30fb\u30ed\u30fc\u30c9\u306e\u30b9\u30fc\u30d1\u30fc\u30bb\u30f3\u30bf\u30fc\u62e1\u5f35\u306e\u5b8c\u4e86\u3092\u5831\u544a\u3059\u308b\u57fa\u790e\u3068\u306a\u308b\u3082\u306e\u3067\u30013D\u30b3\u30f3\u30af\u30ea\u30fc\u30c8\u30d7\u30ea\u30f3\u30c8\u306e\u5fdc\u7528\u3092\u901a\u3058\u3066\u5efa\u8a2d\u696d\u754c\u306b\u304a\u3051\u308b\u9032\u5316\u3059\u308b\u80fd\u529b\u3068\u52b9\u7387\u6027\u3092\u5f37\u8abf\u3059\u308b\u30d7\u30ed\u30b8\u30a7\u30af\u30c8\u3067\u3042\u308b\u3002\u30a6\u30a9\u30eb\u30de\u30fc\u30c8\u306e\u5f37\u56fa\u306a\u8ca1\u52d9\u5065\u5168\u6027\u30b9\u30b3\u30a2\u3068\u904b\u7528\u52b9\u7387\u306b\u304a\u3051\u308b\u7d99\u7d9a\u7684\u306a\u30a4\u30ce\u30d9\u30fc\u30b7\u30e7\u30f3\u306b\u3088\u308a\u3001\u3088\u308a\u6df1\u3044\u6d1e\u5bdf\u3092\u6c42\u3081\u308b\u6295\u8cc7\u5bb6\u306f\u3001InvestingPro\u306e\u5305\u62ec\u7684\u306a\u8abf\u67fb\u30d7\u30e9\u30c3\u30c8\u30d5\u30a9\u30fc\u30e0\u3092\u901a\u3058\u3066\u8a73\u7d30\u306a\u8a55\u4fa1\u6307\u6a19\u306815\u4ee5\u4e0a\u306e\u8ffd\u52a0ProTips\u306b\u30a2\u30af\u30bb\u30b9\u3067\u304d\u308b\u3002\n\n\u305d\u306e\u4ed6\u306e\u6700\u8fd1\u306e\u30cb\u30e5\u30fc\u30b9\u3067\u306f\u3001\u30a6\u30a9\u30eb\u30de\u30fc\u30c8\u306e\u4eca\u5f8c\u306e\u6c7a\u7b97\u5831\u544a\u66f8\u306f\u30a2\u30ca\u30ea\u30b9\u30c8\u306e\u6ce8\u76ee\u3092\u96c6\u3081\u3066\u304a\u308a\u3001DA\u30c7\u30d3\u30c3\u30c9\u30bd\u30f3\u306f\u8cb7\u3044\u8a55\u4fa1\u3068117\u30c9\u30eb\u306e\u76ee\u6a19\u4fa1\u683c\u3092\u7dad\u6301\u3057\u3001\u30de\u30fc\u30b8\u30f3\u5727\u529b\u306e\u53ef\u80fd\u6027\u306b\u3082\u304b\u304b\u308f\u3089\u305a\u3001\u5e02\u5834\u30b7\u30a7\u30a2\u306e\u7372\u5f97\u3068\u6bd4\u8f03\u53ef\u80fd\u306a\u58f2\u4e0a\u306e\u4e0a\u56de\u308a\u3092\u4e88\u60f3\u3057\u3066\u3044\u308b\u3002\u4e00\u65b9\u3001\u30e2\u30eb\u30ac\u30f3\u30fb\u30b9\u30bf\u30f3\u30ec\u30fc\u306f115\u30c9\u30eb\u306e\u76ee\u6a19\u4fa1\u683c\u3067\u30aa\u30fc\u30d0\u30fc\u30a6\u30a7\u30a4\u30c8\u8a55\u4fa1\u3092\u518d\u78ba\u8a8d\u3057\u3001\u6d88\u8cbb\u8005\u30d1\u30eb\u30b9\u8abf\u67fb\u306b\u3088\u308b\u3068\u65b0\u305f\u306a\u30d4\u30fc\u30af\u306b\u9054\u3057\u305f\u30a6\u30a9\u30eb\u30de\u30fc\u30c8+\u4f1a\u54e1\u6570\u306e\u5927\u5e45\u306a\u5897\u52a0\u3092\u5f37\u8abf\u3057\u305f\u3002RBC\u30ad\u30e3\u30d4\u30bf\u30eb\u30fb\u30de\u30fc\u30b1\u30c3\u30c4\u3082\u30a6\u30a9\u30eb\u30de\u30fc\u30c8\u306b\u5bfe\u3059\u308b\u30a2\u30a6\u30c8\u30d1\u30d5\u30a9\u30fc\u30e0\u8a55\u4fa1\u3068102\u30c9\u30eb\u306e\u76ee\u6a19\u4fa1\u683c\u3092\u7dad\u6301\u3057\u305f\u304c\u3001\u4e00\u8cab\u6027\u306e\u306a\u3044\u58f2\u4e0a\u50be\u5411\u3068\u4e88\u60f3\u3092\u4e0a\u56de\u308b\u8cbb\u7528\u306b\u3088\u308a\u3001\u7b2c2\u56db\u534a\u671f\u306e\u7d14\u58f2\u4e0a\u6210\u9577\u4e88\u6e2c\u3092\u308f\u305a\u304b\u306b\u4e0b\u65b9\u4fee\u6b63\u3057\u305f\u3002\u3055\u3089\u306b\u3001\u30a6\u30a9\u30eb\u30de\u30fc\u30c8\u3068\u30a2\u30c3\u30d7\u30b9\u30bf\u30fc\u30c8 \u30db\u30fc\u30eb\u30c7\u30a3\u30f3\u30b0\u30b9\u306e\u6226\u7565\u7684\u30d1\u30fc\u30c8\u30ca\u30fc\u30b7\u30c3\u30d7\u306f\u3001OneProgress Services LLC\u3092\u901a\u3058\u3066\u3001\u30a6\u30a9\u30eb\u30de\u30fc\u30c8\u306e\u5e83\u7bc4\u306a\u9867\u5ba2\u57fa\u76e4\u306b\u30a2\u30c3\u30d7\u30b9\u30bf\u30fc\u30c8 \u30db\u30fc\u30eb\u30c7\u30a3\u30f3\u30b0\u30b9\u306e\u6d88\u8cbb\u8005\u5411\u3051\u878d\u8cc7\u5546\u54c1\u3092\u8ca9\u58f2\u3059\u308b\u3053\u3068\u3092\u76ee\u7684\u3068\u3057\u3066\u3044\u308b\u304c\u30012025\u5e74\u306e\u8ca1\u52d9\u7d50\u679c\u306b\u91cd\u5927\u306a\u5f71\u97ff\u3092\u4e0e\u3048\u308b\u3068\u306f\u4e88\u60f3\u3055\u308c\u3066\u3044\u306a\u3044\u3002\u307f\u305a\u307b\u8a3c\u5238\u306e\u30a2\u30ca\u30ea\u30b9\u30c8\u3001\u30c0\u30f3\u30fb\u30c9\u30ec\u30d6\u6c0f\u306f\u3053\u306e\u30d1\u30fc\u30c8\u30ca\u30fc\u30b7\u30c3\u30d7\u306b\u81ea\u4fe1\u3092\u793a\u3057\u3001\u30a2\u30c3\u30d7\u30b9\u30bf\u30fc\u30c8 \u30db\u30fc\u30eb\u30c7\u30a3\u30f3\u30b0\u30b9\u306e\u878d\u8cc7\u80fd\u529b\u306e\u691c\u8a3c\u3068\u898b\u306a\u3057\u3066\u3044\u308b\u3002\u3053\u308c\u3089\u306e\u5c55\u958b\u306f\u3001\u30a6\u30a9\u30eb\u30de\u30fc\u30c8\u306e\u4ee3\u66ff\u5229\u76ca\u30e2\u30c7\u30eb\u3092\u62e1\u5927\u3057\u3001\u5e02\u5834\u30d7\u30ec\u30bc\u30f3\u30b9\u3092\u6d3b\u7528\u3059\u308b\u7d99\u7d9a\u7684\u306a\u53d6\u308a\u7d44\u307f\u3092\u53cd\u6620\u3057\u3066\u3044\u308b\u3002\u6295\u8cc7\u5bb6\u306f\u30a6\u30a9\u30eb\u30de\u30fc\u30c8\u306e\u8ca1\u52d9\u958b\u793a\u3092\u6ce8\u8996\u3057\u3066\u304a\u308a\u3001\u540c\u5c0f\u58f2\u696d\u8005\u306e\u30d1\u30d5\u30a9\u30fc\u30de\u30f3\u30b9\u306f\u3088\u308a\u5e83\u7bc4\u306a\u6d88\u8cbb\u8005\u30bb\u30af\u30bf\u30fc\u306e\u6307\u6a19\u3068\u3057\u3066\u898b\u3089\u308c\u308b\u3053\u3068\u304c\u591a\u3044\u3002\n\n\u3053\u306e\u8a18\u4e8b\u306f\u4e00\u90e8\u81ea\u52d5\u7ffb\u8a33\u6a5f\u3092\u6d3b\u7528\u3057\u3066\u7ffb\u8a33\u3055\u308c\u3066\u304a\u308a\u307e\u3059\u3002\u8a73\u7d30\u306f\u5229\u7528\u898f\u7d04\u3092\u3054\u53c2\u7167\u304f\u3060\u3055\u3044\u3002",
        "source": {
          "uri": "jp.investing.com",
          "dataType": "news",
          "title": "Investing.com \u65e5\u672c"
        },
        "authors": [],
        "image": "https://i-invdn-com.investing.com/redesign/images/seo/investing_300X300.png",
        "eventUri": null,
        "sentiment": null,
        "wgt": 484405698,
        "relevance": 1
      },
      {
        "uri": "2025-05-713738686",
        "lang": "eng",
        "isDuplicate": false,
        "date": "2025-05-08",
        "time": "13:06:36",
        "dateTime": "2025-05-08T13:06:36Z",
        "dateTimePub": "2025-05-08T12:35:00Z",
        "dataType": "news",
        "sim": 0,
        "url": "https://www.nasdaq.com/articles/guru-fundamental-report-wmt-93",
        "title": "Guru Fundamental Report for WMT",
        "body": "Below is Validea's guru fundamental report for WALMART INC (WMT). Of the 22 guru strategies we follow, WMT rates highest using our Quantitative Momentum Investor model based on the published strategy of Wesley Gray. This momentum model looks for stocks with strong and consistent intermediate-term relative performance.\n\nWALMART INC (WMT) is a large-cap growth stock in the Retail (Grocery) industry. The rating using this strategy is 100% based on the firm's underlying fundamentals and the stock's valuation. A score of 80% or above typically indicates that the strategy has some interest in the stock and a score above 90% typically indicates strong interest.\n\nThe following table summarizes whether the stock meets each of this strategy's tests. Not all criteria in the below table receive equal weighting or are independent, but the table provides a brief overview of the strong and weak points of the security in the context of the strategy's criteria.\n\nAbout Wesley Gray: Wesley Gray is the founder of Alpha Architect and the author (along with co-author Jack Vogel) of \"Quantitative Momentum A Practitioner's Guide to Building a Momentum-Based Stock Selection System\". He is also the author (along with co-author Tobias Carlisle) of \"Quantitative Value: A Practitioner's Guide to Automating Intelligent Investment and Eliminating Behavioral Errors\". He is an industry recognized expert in the application of quantitative investing strategies. Wes is also a former Marine and has his Phd from the Univerisity of Chicago, where he studied under Nobel Prize winner Eugene Fama.\n\nAbout Validea: Validea is aninvestment researchservice that follows the published strategies of investment legends. Validea offers both stock analysis and model portfolios based on gurus who have outperformed the market over the long-term, including Warren Buffett, Benjamin Graham, Peter Lynch and Martin Zweig. For more information about Validea, click here\n\nThe views and opinions expressed herein are the views and opinions of the author and do not necessarily reflect those of Nasdaq, Inc.",
        "source": {
          "uri": "nasdaq.com",
          "dataType": "news",
          "title": "NASDAQ Stock Market"
        },
        "authors": [],
        "image": "https://www.nasdaq.com/sites/acquia.prod/files/2019-05/0902-Q19%20Total%20Markets%20photos%20and%20gif_CC8.jpg",
        "eventUri": null,
        "sentiment": 0.2313725490196079,
        "wgt": 484405596,
        "relevance": 18
      },
      {
        "uri": "2025-05-713734777",
        "lang": "eng",
        "isDuplicate": false,
        "date": "2025-05-08",
        "time": "13:01:40",
        "dateTime": "2025-05-08T13:01:40Z",
        "dateTimePub": "2025-05-08T12:54:52Z",
        "dataType": "news",
        "sim": 0,
        "url": "https://www.investing.com/news/company-news/walmart-and-alquist-achieve-construction-milestone-with-3d-printing-93CH-4032719",
        "title": "Walmart and Alquist achieve construction milestone with 3D printing By Investing.com",
        "body": "OWENS CROSS ROADS, Ala. - Walmart Inc. (NYSE: WMT), the $790 billion retail giant with over $680 billion in annual revenue, and construction technology firm Alquist have completed a significant expansion project at the Owens Cross Roads, Ala., Supercenter using advanced 3D Concrete Printing (3DCP) technology. According to InvestingPro data, Walmart maintains strong financial health with a 13% return on invested capital, positioning it well for innovative expansion projects. The project, which involved constructing 5,000-square-foot walls for the store's pickup area, was completed in one week, showcasing a new standard in construction speed and cost efficiency.\n\nThe collaboration between Walmart and Alquist demonstrates the potential for 3DCP to address longstanding challenges in the construction industry, particularly regarding project duration and budget. Alquist's use of two 3DCP systems allowed a five-person team to erect 16-foot-high walls within 75 operational hours, a pace substantially quicker than traditional methods. This efficiency aligns with Walmart's broader operational success, as evidenced by its 5.07% revenue growth and robust market position. For detailed analysis of Walmart's financial metrics and growth potential, investors can access comprehensive research through InvestingPro, which offers exclusive insights on over 1,400 US stocks.\n\nPatrick Callahan, CEO of Alquist 3D, emphasized the scalability of 3D printing in commercial construction, highlighting its benefits for retail expansions. According to Darin Ross, president and CEO of FMGI, Inc., the general contractor, this construction method not only reduced costs by 15% compared to their first 3DCP build but also cut material waste by 55%.\n\nLB Johnson, Vice President of Construction at Walmart, noted that their approach to innovation aims to streamline processes and reduce costs and timelines, ultimately benefiting customers and catalyzing change in the construction sector.\n\nThe 3DCP technology also offers material efficiency, labor optimization through robotics, and reduced safety risks, as traditional scaffolding and bracing are not required. Moreover, Alquist's team demonstrated the technology's resilience against adverse weather, which typically delays conventional construction.\n\nSika USA supplied the specialized concrete mix, contributing to the project's success by providing a balance of speed and durability. FMGI coordinated the integration of 3DCP with conventional construction tasks on-site.\n\nAs part of its commitment to workforce development, Alquist has developed a 3DCP curriculum in partnership with Aims Community College in Greeley, Colorado, to prepare builders for large-scale 3D printing projects.\n\nThis press release statement serves as the basis for reporting the completion of the Owens Cross Roads Supercenter expansion, a project that underscores the evolving capabilities and efficiencies in the construction industry through the application of 3D concrete printing. With Walmart's strong financial health score and continued innovation in operational efficiency, investors seeking deeper insights can access detailed valuation metrics and 15+ additional ProTips through InvestingPro's comprehensive research platform.\n\nIn other recent news, Walmart's upcoming earnings report has garnered attention from analysts, with DA Davidson maintaining a Buy rating and a $117 price target, anticipating market share gains and a comparable sales beat despite potential margin pressures. Meanwhile, Morgan Stanley reaffirmed its Overweight rating with a $115 target, highlighting a significant increase in Walmart+ membership, which has reached a new peak according to their Consumer Pulse survey. RBC Capital Markets also maintained its Outperform rating and $102 price target for Walmart, although it adjusted its forecast for second-quarter net sales growth slightly downward due to inconsistent sales trends and higher-than-expected expenses. Additionally, Walmart's strategic partnership with Upstart, through OneProgress Services LLC, aims to market Upstart's consumer lending products to Walmart's extensive customer base, although it is not expected to materially impact financial results for 2025. Mizuho analyst Dan Dolev expressed confidence in the partnership, viewing it as a validation of Upstart's lending capabilities. These developments reflect Walmart's ongoing efforts to expand its alternative profit models and leverage its market presence. Investors are closely monitoring Walmart's financial disclosures, as the retailer's performance is often seen as an indicator for the broader consumer sector.",
        "source": {
          "uri": "investing.com",
          "dataType": "news",
          "title": "Investing.com"
        },
        "authors": [],
        "image": "https://i-invdn-com.investing.com/redesign/images/seo/investing_300X300.png",
        "eventUri": null,
        "sentiment": 0.2784313725490195,
        "wgt": 484405300,
        "relevance": 1
      }
    ],
    "totalResults": 1330,
    "page": 1,
    "count": 5,
    "pages": 266
  }
}